<?xml version="1.0" encoding="utf-8"?>
<!DOCTYPE eagle SYSTEM "eagle.dtd">
<eagle version="9.6.2">
<drawing>
<settings>
<setting alwaysvectorfont="no"/>
<setting verticaltext="up"/>
</settings>
<grid distance="0.1" unitdist="inch" unit="inch" style="lines" multiple="1" display="no" altdistance="0.01" altunitdist="inch" altunit="inch"/>
<layers>
<layer number="1" name="Top" color="4" fill="1" visible="no" active="no"/>
<layer number="16" name="Bottom" color="1" fill="1" visible="no" active="no"/>
<layer number="17" name="Pads" color="2" fill="1" visible="no" active="no"/>
<layer number="18" name="Vias" color="2" fill="1" visible="no" active="no"/>
<layer number="19" name="Unrouted" color="6" fill="1" visible="no" active="no"/>
<layer number="20" name="Dimension" color="24" fill="1" visible="no" active="no"/>
<layer number="21" name="tPlace" color="16" fill="1" visible="no" active="no"/>
<layer number="22" name="bPlace" color="14" fill="1" visible="no" active="no"/>
<layer number="23" name="tOrigins" color="15" fill="1" visible="no" active="no"/>
<layer number="24" name="bOrigins" color="15" fill="1" visible="no" active="no"/>
<layer number="25" name="tNames" color="7" fill="1" visible="no" active="no"/>
<layer number="26" name="bNames" color="7" fill="1" visible="no" active="no"/>
<layer number="27" name="tValues" color="7" fill="1" visible="no" active="no"/>
<layer number="28" name="bValues" color="7" fill="1" visible="no" active="no"/>
<layer number="29" name="tStop" color="7" fill="3" visible="no" active="no"/>
<layer number="30" name="bStop" color="7" fill="6" visible="no" active="no"/>
<layer number="31" name="tCream" color="7" fill="4" visible="no" active="no"/>
<layer number="32" name="bCream" color="7" fill="5" visible="no" active="no"/>
<layer number="33" name="tFinish" color="6" fill="3" visible="no" active="no"/>
<layer number="34" name="bFinish" color="6" fill="6" visible="no" active="no"/>
<layer number="35" name="tGlue" color="7" fill="4" visible="no" active="no"/>
<layer number="36" name="bGlue" color="7" fill="5" visible="no" active="no"/>
<layer number="37" name="tTest" color="7" fill="1" visible="no" active="no"/>
<layer number="38" name="bTest" color="7" fill="1" visible="no" active="no"/>
<layer number="39" name="tKeepout" color="4" fill="11" visible="no" active="no"/>
<layer number="40" name="bKeepout" color="1" fill="11" visible="no" active="no"/>
<layer number="41" name="tRestrict" color="4" fill="10" visible="no" active="no"/>
<layer number="42" name="bRestrict" color="1" fill="10" visible="no" active="no"/>
<layer number="43" name="vRestrict" color="2" fill="10" visible="no" active="no"/>
<layer number="44" name="Drills" color="7" fill="1" visible="no" active="no"/>
<layer number="45" name="Holes" color="7" fill="1" visible="no" active="no"/>
<layer number="46" name="Milling" color="3" fill="1" visible="no" active="no"/>
<layer number="47" name="Measures" color="7" fill="1" visible="no" active="no"/>
<layer number="48" name="Document" color="7" fill="1" visible="no" active="no"/>
<layer number="49" name="Reference" color="7" fill="1" visible="no" active="no"/>
<layer number="50" name="dxf" color="7" fill="1" visible="no" active="no"/>
<layer number="51" name="tDocu" color="6" fill="1" visible="no" active="no"/>
<layer number="52" name="bDocu" color="7" fill="1" visible="no" active="no"/>
<layer number="53" name="tGND_GNDA" color="7" fill="1" visible="no" active="no"/>
<layer number="54" name="bGND_GNDA" color="7" fill="1" visible="no" active="no"/>
<layer number="56" name="wert" color="7" fill="1" visible="no" active="no"/>
<layer number="57" name="tCAD" color="7" fill="1" visible="no" active="no"/>
<layer number="59" name="tCarbon" color="7" fill="1" visible="no" active="no"/>
<layer number="60" name="bCarbon" color="7" fill="1" visible="no" active="no"/>
<layer number="88" name="SimResults" color="9" fill="1" visible="yes" active="yes"/>
<layer number="89" name="SimProbes" color="9" fill="1" visible="yes" active="yes"/>
<layer number="90" name="Modules" color="5" fill="1" visible="yes" active="yes"/>
<layer number="91" name="Nets" color="2" fill="1" visible="yes" active="yes"/>
<layer number="92" name="Busses" color="1" fill="1" visible="yes" active="yes"/>
<layer number="93" name="Pins" color="2" fill="1" visible="no" active="yes"/>
<layer number="94" name="Symbols" color="4" fill="1" visible="yes" active="yes"/>
<layer number="95" name="Names" color="7" fill="1" visible="yes" active="yes"/>
<layer number="96" name="Values" color="7" fill="1" visible="yes" active="yes"/>
<layer number="97" name="Info" color="7" fill="1" visible="yes" active="yes"/>
<layer number="98" name="Guide" color="6" fill="1" visible="yes" active="yes"/>
<layer number="99" name="SpiceOrder" color="7" fill="1" visible="no" active="no"/>
<layer number="100" name="Muster" color="7" fill="1" visible="yes" active="yes"/>
<layer number="101" name="Patch_Top" color="7" fill="1" visible="no" active="yes"/>
<layer number="102" name="Vscore" color="7" fill="1" visible="no" active="yes"/>
<layer number="103" name="tMap" color="7" fill="1" visible="no" active="yes"/>
<layer number="104" name="Name" color="7" fill="1" visible="no" active="yes"/>
<layer number="105" name="tPlate" color="7" fill="1" visible="no" active="yes"/>
<layer number="106" name="bPlate" color="7" fill="1" visible="no" active="yes"/>
<layer number="107" name="Crop" color="7" fill="1" visible="no" active="yes"/>
<layer number="108" name="fp8" color="7" fill="1" visible="no" active="yes"/>
<layer number="109" name="fp9" color="7" fill="1" visible="no" active="yes"/>
<layer number="110" name="fp0" color="7" fill="1" visible="no" active="yes"/>
<layer number="111" name="LPC17xx" color="7" fill="1" visible="no" active="yes"/>
<layer number="112" name="tSilk" color="7" fill="1" visible="no" active="yes"/>
<layer number="113" name="IDFDebug" color="4" fill="1" visible="no" active="no"/>
<layer number="114" name="Badge_Outline" color="7" fill="1" visible="no" active="no"/>
<layer number="115" name="ReferenceISLANDS" color="7" fill="1" visible="no" active="no"/>
<layer number="116" name="Patch_BOT" color="7" fill="1" visible="no" active="yes"/>
<layer number="118" name="Rect_Pads" color="7" fill="1" visible="no" active="no"/>
<layer number="121" name="_tsilk" color="7" fill="1" visible="no" active="yes"/>
<layer number="122" name="_bsilk" color="7" fill="1" visible="no" active="yes"/>
<layer number="123" name="tTestmark" color="7" fill="1" visible="no" active="yes"/>
<layer number="124" name="bTestmark" color="7" fill="1" visible="no" active="yes"/>
<layer number="125" name="_tNames" color="7" fill="1" visible="no" active="yes"/>
<layer number="126" name="_bNames" color="7" fill="1" visible="no" active="yes"/>
<layer number="127" name="_tValues" color="7" fill="1" visible="no" active="yes"/>
<layer number="128" name="_bValues" color="7" fill="1" visible="no" active="yes"/>
<layer number="129" name="Mask" color="7" fill="1" visible="no" active="no"/>
<layer number="131" name="tAdjust" color="7" fill="1" visible="no" active="yes"/>
<layer number="132" name="bAdjust" color="7" fill="1" visible="no" active="yes"/>
<layer number="144" name="Drill_legend" color="7" fill="1" visible="no" active="yes"/>
<layer number="150" name="Notes" color="7" fill="1" visible="no" active="no"/>
<layer number="151" name="HeatSink" color="7" fill="1" visible="no" active="yes"/>
<layer number="152" name="_bDocu" color="7" fill="1" visible="no" active="yes"/>
<layer number="153" name="FabDoc1" color="7" fill="1" visible="no" active="no"/>
<layer number="154" name="FabDoc2" color="7" fill="1" visible="no" active="no"/>
<layer number="155" name="FabDoc3" color="7" fill="1" visible="no" active="no"/>
<layer number="199" name="Contour" color="7" fill="1" visible="no" active="yes"/>
<layer number="200" name="200bmp" color="10" fill="1" visible="yes" active="yes"/>
<layer number="201" name="201bmp" color="15" fill="1" visible="no" active="yes"/>
<layer number="202" name="202bmp" color="7" fill="1" visible="no" active="yes"/>
<layer number="203" name="203bmp" color="4" fill="10" visible="no" active="yes"/>
<layer number="204" name="204bmp" color="5" fill="10" visible="no" active="yes"/>
<layer number="205" name="205bmp" color="6" fill="10" visible="no" active="yes"/>
<layer number="206" name="206bmp" color="7" fill="10" visible="no" active="yes"/>
<layer number="207" name="207bmp" color="8" fill="10" visible="no" active="yes"/>
<layer number="208" name="208bmp" color="9" fill="10" visible="no" active="yes"/>
<layer number="209" name="209bmp" color="10" fill="1" visible="no" active="no"/>
<layer number="210" name="210bmp" color="11" fill="1" visible="no" active="no"/>
<layer number="211" name="211bmp" color="12" fill="1" visible="no" active="no"/>
<layer number="212" name="212bmp" color="13" fill="1" visible="no" active="no"/>
<layer number="213" name="213bmp" color="14" fill="1" visible="no" active="no"/>
<layer number="214" name="214bmp" color="15" fill="1" visible="no" active="no"/>
<layer number="215" name="215bmp" color="16" fill="1" visible="no" active="no"/>
<layer number="216" name="216bmp" color="17" fill="1" visible="no" active="no"/>
<layer number="217" name="217bmp" color="18" fill="1" visible="no" active="no"/>
<layer number="218" name="218bmp" color="19" fill="1" visible="no" active="no"/>
<layer number="219" name="219bmp" color="20" fill="1" visible="no" active="no"/>
<layer number="220" name="220bmp" color="21" fill="1" visible="no" active="no"/>
<layer number="221" name="221bmp" color="22" fill="1" visible="no" active="no"/>
<layer number="222" name="222bmp" color="23" fill="1" visible="no" active="no"/>
<layer number="223" name="223bmp" color="24" fill="1" visible="no" active="no"/>
<layer number="224" name="224bmp" color="25" fill="1" visible="no" active="no"/>
<layer number="225" name="225bmp" color="7" fill="1" visible="no" active="no"/>
<layer number="226" name="226bmp" color="7" fill="1" visible="no" active="no"/>
<layer number="227" name="227bmp" color="7" fill="1" visible="no" active="no"/>
<layer number="228" name="228bmp" color="7" fill="1" visible="no" active="no"/>
<layer number="229" name="229bmp" color="7" fill="1" visible="no" active="no"/>
<layer number="230" name="230bmp" color="7" fill="1" visible="no" active="no"/>
<layer number="231" name="231bmp" color="7" fill="1" visible="no" active="no"/>
<layer number="232" name="Eagle3D_PG2" color="7" fill="1" visible="no" active="no"/>
<layer number="233" name="Eagle3D_PG3" color="7" fill="1" visible="no" active="no"/>
<layer number="248" name="Housing" color="7" fill="1" visible="no" active="yes"/>
<layer number="249" name="Edge" color="7" fill="1" visible="no" active="yes"/>
<layer number="250" name="Descript" color="7" fill="1" visible="yes" active="yes"/>
<layer number="251" name="SMDround" color="7" fill="1" visible="yes" active="yes"/>
<layer number="252" name="BR-BS" color="7" fill="1" visible="yes" active="yes"/>
<layer number="253" name="BR-LS" color="7" fill="1" visible="yes" active="yes"/>
<layer number="254" name="cooling" color="7" fill="1" visible="no" active="yes"/>
<layer number="255" name="ZchnBlatt" color="7" fill="1" visible="yes" active="yes"/>
</layers>
<schematic xreflabel="%F%N/%S.%C%R" xrefpart="/%S.%C%R">
<libraries>
<library name="pinhead" urn="urn:adsk.eagle:library:325">
<description>&lt;b&gt;Pin Header Connectors&lt;/b&gt;&lt;p&gt;
&lt;author&gt;Created by librarian@cadsoft.de&lt;/author&gt;</description>
<packages>
<package name="2X20" urn="urn:adsk.eagle:footprint:22315/1" library_version="5">
<description>&lt;b&gt;PIN HEADER&lt;/b&gt;</description>
<wire x1="-25.4" y1="-1.905" x2="-24.765" y2="-2.54" width="0.1524" layer="21"/>
<wire x1="-24.765" y1="-2.54" x2="-23.495" y2="-2.54" width="0.1524" layer="21"/>
<wire x1="-23.495" y1="-2.54" x2="-22.86" y2="-1.905" width="0.1524" layer="21"/>
<wire x1="-22.86" y1="-1.905" x2="-22.225" y2="-2.54" width="0.1524" layer="21"/>
<wire x1="-22.225" y1="-2.54" x2="-20.955" y2="-2.54" width="0.1524" layer="21"/>
<wire x1="-20.955" y1="-2.54" x2="-20.32" y2="-1.905" width="0.1524" layer="21"/>
<wire x1="-20.32" y1="-1.905" x2="-19.685" y2="-2.54" width="0.1524" layer="21"/>
<wire x1="-19.685" y1="-2.54" x2="-18.415" y2="-2.54" width="0.1524" layer="21"/>
<wire x1="-18.415" y1="-2.54" x2="-17.78" y2="-1.905" width="0.1524" layer="21"/>
<wire x1="-17.78" y1="-1.905" x2="-17.145" y2="-2.54" width="0.1524" layer="21"/>
<wire x1="-17.145" y1="-2.54" x2="-15.875" y2="-2.54" width="0.1524" layer="21"/>
<wire x1="-15.875" y1="-2.54" x2="-15.24" y2="-1.905" width="0.1524" layer="21"/>
<wire x1="-15.24" y1="-1.905" x2="-14.605" y2="-2.54" width="0.1524" layer="21"/>
<wire x1="-14.605" y1="-2.54" x2="-13.335" y2="-2.54" width="0.1524" layer="21"/>
<wire x1="-13.335" y1="-2.54" x2="-12.7" y2="-1.905" width="0.1524" layer="21"/>
<wire x1="-12.7" y1="-1.905" x2="-12.065" y2="-2.54" width="0.1524" layer="21"/>
<wire x1="-12.065" y1="-2.54" x2="-10.795" y2="-2.54" width="0.1524" layer="21"/>
<wire x1="-10.795" y1="-2.54" x2="-10.16" y2="-1.905" width="0.1524" layer="21"/>
<wire x1="-25.4" y1="-1.905" x2="-25.4" y2="1.905" width="0.1524" layer="21"/>
<wire x1="-25.4" y1="1.905" x2="-24.765" y2="2.54" width="0.1524" layer="21"/>
<wire x1="-24.765" y1="2.54" x2="-23.495" y2="2.54" width="0.1524" layer="21"/>
<wire x1="-23.495" y1="2.54" x2="-22.86" y2="1.905" width="0.1524" layer="21"/>
<wire x1="-22.86" y1="1.905" x2="-22.225" y2="2.54" width="0.1524" layer="21"/>
<wire x1="-22.225" y1="2.54" x2="-20.955" y2="2.54" width="0.1524" layer="21"/>
<wire x1="-20.955" y1="2.54" x2="-20.32" y2="1.905" width="0.1524" layer="21"/>
<wire x1="-20.32" y1="1.905" x2="-19.685" y2="2.54" width="0.1524" layer="21"/>
<wire x1="-19.685" y1="2.54" x2="-18.415" y2="2.54" width="0.1524" layer="21"/>
<wire x1="-18.415" y1="2.54" x2="-17.78" y2="1.905" width="0.1524" layer="21"/>
<wire x1="-17.78" y1="1.905" x2="-17.145" y2="2.54" width="0.1524" layer="21"/>
<wire x1="-17.145" y1="2.54" x2="-15.875" y2="2.54" width="0.1524" layer="21"/>
<wire x1="-15.875" y1="2.54" x2="-15.24" y2="1.905" width="0.1524" layer="21"/>
<wire x1="-15.24" y1="1.905" x2="-14.605" y2="2.54" width="0.1524" layer="21"/>
<wire x1="-14.605" y1="2.54" x2="-13.335" y2="2.54" width="0.1524" layer="21"/>
<wire x1="-13.335" y1="2.54" x2="-12.7" y2="1.905" width="0.1524" layer="21"/>
<wire x1="-12.7" y1="1.905" x2="-12.065" y2="2.54" width="0.1524" layer="21"/>
<wire x1="-12.065" y1="2.54" x2="-10.795" y2="2.54" width="0.1524" layer="21"/>
<wire x1="-10.795" y1="2.54" x2="-10.16" y2="1.905" width="0.1524" layer="21"/>
<wire x1="-10.16" y1="1.905" x2="-9.525" y2="2.54" width="0.1524" layer="21"/>
<wire x1="-9.525" y1="2.54" x2="-8.255" y2="2.54" width="0.1524" layer="21"/>
<wire x1="-8.255" y1="2.54" x2="-7.62" y2="1.905" width="0.1524" layer="21"/>
<wire x1="-7.62" y1="1.905" x2="-6.985" y2="2.54" width="0.1524" layer="21"/>
<wire x1="-6.985" y1="2.54" x2="-5.715" y2="2.54" width="0.1524" layer="21"/>
<wire x1="-5.715" y1="2.54" x2="-5.08" y2="1.905" width="0.1524" layer="21"/>
<wire x1="-5.08" y1="1.905" x2="-4.445" y2="2.54" width="0.1524" layer="21"/>
<wire x1="-4.445" y1="2.54" x2="-3.175" y2="2.54" width="0.1524" layer="21"/>
<wire x1="-3.175" y1="2.54" x2="-2.54" y2="1.905" width="0.1524" layer="21"/>
<wire x1="-2.54" y1="1.905" x2="-1.905" y2="2.54" width="0.1524" layer="21"/>
<wire x1="-1.905" y1="2.54" x2="-0.635" y2="2.54" width="0.1524" layer="21"/>
<wire x1="-0.635" y1="2.54" x2="0" y2="1.905" width="0.1524" layer="21"/>
<wire x1="0" y1="1.905" x2="0.635" y2="2.54" width="0.1524" layer="21"/>
<wire x1="0.635" y1="2.54" x2="1.905" y2="2.54" width="0.1524" layer="21"/>
<wire x1="1.905" y1="2.54" x2="2.54" y2="1.905" width="0.1524" layer="21"/>
<wire x1="2.54" y1="1.905" x2="3.175" y2="2.54" width="0.1524" layer="21"/>
<wire x1="3.175" y1="2.54" x2="4.445" y2="2.54" width="0.1524" layer="21"/>
<wire x1="5.08" y1="1.905" x2="4.445" y2="2.54" width="0.1524" layer="21"/>
<wire x1="5.08" y1="1.905" x2="5.715" y2="2.54" width="0.1524" layer="21"/>
<wire x1="6.985" y1="2.54" x2="5.715" y2="2.54" width="0.1524" layer="21"/>
<wire x1="6.985" y1="2.54" x2="7.62" y2="1.905" width="0.1524" layer="21"/>
<wire x1="7.62" y1="1.905" x2="8.255" y2="2.54" width="0.1524" layer="21"/>
<wire x1="9.525" y1="2.54" x2="8.255" y2="2.54" width="0.1524" layer="21"/>
<wire x1="9.525" y1="2.54" x2="10.16" y2="1.905" width="0.1524" layer="21"/>
<wire x1="10.16" y1="1.905" x2="10.795" y2="2.54" width="0.1524" layer="21"/>
<wire x1="12.065" y1="2.54" x2="10.795" y2="2.54" width="0.1524" layer="21"/>
<wire x1="12.065" y1="2.54" x2="12.7" y2="1.905" width="0.1524" layer="21"/>
<wire x1="12.7" y1="1.905" x2="13.335" y2="2.54" width="0.1524" layer="21"/>
<wire x1="14.605" y1="2.54" x2="13.335" y2="2.54" width="0.1524" layer="21"/>
<wire x1="14.605" y1="2.54" x2="15.24" y2="1.905" width="0.1524" layer="21"/>
<wire x1="15.24" y1="1.905" x2="15.875" y2="2.54" width="0.1524" layer="21"/>
<wire x1="17.145" y1="2.54" x2="15.875" y2="2.54" width="0.1524" layer="21"/>
<wire x1="17.145" y1="2.54" x2="17.78" y2="1.905" width="0.1524" layer="21"/>
<wire x1="17.78" y1="1.905" x2="18.415" y2="2.54" width="0.1524" layer="21"/>
<wire x1="19.685" y1="2.54" x2="18.415" y2="2.54" width="0.1524" layer="21"/>
<wire x1="19.685" y1="2.54" x2="20.32" y2="1.905" width="0.1524" layer="21"/>
<wire x1="20.32" y1="1.905" x2="20.955" y2="2.54" width="0.1524" layer="21"/>
<wire x1="22.225" y1="2.54" x2="20.955" y2="2.54" width="0.1524" layer="21"/>
<wire x1="22.225" y1="2.54" x2="22.86" y2="1.905" width="0.1524" layer="21"/>
<wire x1="22.86" y1="-1.905" x2="22.225" y2="-2.54" width="0.1524" layer="21"/>
<wire x1="22.225" y1="-2.54" x2="20.955" y2="-2.54" width="0.1524" layer="21"/>
<wire x1="20.32" y1="-1.905" x2="20.955" y2="-2.54" width="0.1524" layer="21"/>
<wire x1="20.32" y1="-1.905" x2="19.685" y2="-2.54" width="0.1524" layer="21"/>
<wire x1="19.685" y1="-2.54" x2="18.415" y2="-2.54" width="0.1524" layer="21"/>
<wire x1="17.78" y1="-1.905" x2="18.415" y2="-2.54" width="0.1524" layer="21"/>
<wire x1="17.78" y1="-1.905" x2="17.145" y2="-2.54" width="0.1524" layer="21"/>
<wire x1="17.145" y1="-2.54" x2="15.875" y2="-2.54" width="0.1524" layer="21"/>
<wire x1="15.24" y1="-1.905" x2="15.875" y2="-2.54" width="0.1524" layer="21"/>
<wire x1="15.24" y1="-1.905" x2="14.605" y2="-2.54" width="0.1524" layer="21"/>
<wire x1="13.335" y1="-2.54" x2="14.605" y2="-2.54" width="0.1524" layer="21"/>
<wire x1="13.335" y1="-2.54" x2="12.7" y2="-1.905" width="0.1524" layer="21"/>
<wire x1="12.7" y1="-1.905" x2="12.065" y2="-2.54" width="0.1524" layer="21"/>
<wire x1="10.795" y1="-2.54" x2="12.065" y2="-2.54" width="0.1524" layer="21"/>
<wire x1="10.795" y1="-2.54" x2="10.16" y2="-1.905" width="0.1524" layer="21"/>
<wire x1="10.16" y1="-1.905" x2="9.525" y2="-2.54" width="0.1524" layer="21"/>
<wire x1="9.525" y1="-2.54" x2="8.255" y2="-2.54" width="0.1524" layer="21"/>
<wire x1="7.62" y1="-1.905" x2="8.255" y2="-2.54" width="0.1524" layer="21"/>
<wire x1="7.62" y1="-1.905" x2="6.985" y2="-2.54" width="0.1524" layer="21"/>
<wire x1="6.985" y1="-2.54" x2="5.715" y2="-2.54" width="0.1524" layer="21"/>
<wire x1="5.08" y1="-1.905" x2="5.715" y2="-2.54" width="0.1524" layer="21"/>
<wire x1="5.08" y1="-1.905" x2="4.445" y2="-2.54" width="0.1524" layer="21"/>
<wire x1="4.445" y1="-2.54" x2="3.175" y2="-2.54" width="0.1524" layer="21"/>
<wire x1="2.54" y1="-1.905" x2="3.175" y2="-2.54" width="0.1524" layer="21"/>
<wire x1="2.54" y1="-1.905" x2="1.905" y2="-2.54" width="0.1524" layer="21"/>
<wire x1="1.905" y1="-2.54" x2="0.635" y2="-2.54" width="0.1524" layer="21"/>
<wire x1="0" y1="-1.905" x2="0.635" y2="-2.54" width="0.1524" layer="21"/>
<wire x1="0" y1="-1.905" x2="-0.635" y2="-2.54" width="0.1524" layer="21"/>
<wire x1="-0.635" y1="-2.54" x2="-1.905" y2="-2.54" width="0.1524" layer="21"/>
<wire x1="-2.54" y1="-1.905" x2="-1.905" y2="-2.54" width="0.1524" layer="21"/>
<wire x1="-2.54" y1="-1.905" x2="-3.175" y2="-2.54" width="0.1524" layer="21"/>
<wire x1="-3.175" y1="-2.54" x2="-4.445" y2="-2.54" width="0.1524" layer="21"/>
<wire x1="-5.08" y1="-1.905" x2="-4.445" y2="-2.54" width="0.1524" layer="21"/>
<wire x1="-5.08" y1="-1.905" x2="-5.715" y2="-2.54" width="0.1524" layer="21"/>
<wire x1="-5.715" y1="-2.54" x2="-6.985" y2="-2.54" width="0.1524" layer="21"/>
<wire x1="-7.62" y1="-1.905" x2="-6.985" y2="-2.54" width="0.1524" layer="21"/>
<wire x1="-7.62" y1="-1.905" x2="-8.255" y2="-2.54" width="0.1524" layer="21"/>
<wire x1="-8.255" y1="-2.54" x2="-9.525" y2="-2.54" width="0.1524" layer="21"/>
<wire x1="-10.16" y1="-1.905" x2="-9.525" y2="-2.54" width="0.1524" layer="21"/>
<wire x1="-22.86" y1="1.905" x2="-22.86" y2="-1.905" width="0.1524" layer="21"/>
<wire x1="-20.32" y1="1.905" x2="-20.32" y2="-1.905" width="0.1524" layer="21"/>
<wire x1="-17.78" y1="1.905" x2="-17.78" y2="-1.905" width="0.1524" layer="21"/>
<wire x1="-15.24" y1="1.905" x2="-15.24" y2="-1.905" width="0.1524" layer="21"/>
<wire x1="-12.7" y1="1.905" x2="-12.7" y2="-1.905" width="0.1524" layer="21"/>
<wire x1="-10.16" y1="1.905" x2="-10.16" y2="-1.905" width="0.1524" layer="21"/>
<wire x1="-7.62" y1="1.905" x2="-7.62" y2="-1.905" width="0.1524" layer="21"/>
<wire x1="-5.08" y1="1.905" x2="-5.08" y2="-1.905" width="0.1524" layer="21"/>
<wire x1="-2.54" y1="1.905" x2="-2.54" y2="-1.905" width="0.1524" layer="21"/>
<wire x1="0" y1="1.905" x2="0" y2="-1.905" width="0.1524" layer="21"/>
<wire x1="2.54" y1="1.905" x2="2.54" y2="-1.905" width="0.1524" layer="21"/>
<wire x1="5.08" y1="1.905" x2="5.08" y2="-1.905" width="0.1524" layer="21"/>
<wire x1="7.62" y1="1.905" x2="7.62" y2="-1.905" width="0.1524" layer="21"/>
<wire x1="10.16" y1="1.905" x2="10.16" y2="-1.905" width="0.1524" layer="21"/>
<wire x1="12.7" y1="1.905" x2="12.7" y2="-1.905" width="0.1524" layer="21"/>
<wire x1="15.24" y1="1.905" x2="15.24" y2="-1.905" width="0.1524" layer="21"/>
<wire x1="17.78" y1="1.905" x2="17.78" y2="-1.905" width="0.1524" layer="21"/>
<wire x1="20.32" y1="1.905" x2="20.32" y2="-1.905" width="0.1524" layer="21"/>
<wire x1="22.86" y1="1.905" x2="22.86" y2="-1.905" width="0.1524" layer="21"/>
<wire x1="22.86" y1="1.905" x2="23.495" y2="2.54" width="0.1524" layer="21"/>
<wire x1="24.765" y1="2.54" x2="23.495" y2="2.54" width="0.1524" layer="21"/>
<wire x1="24.765" y1="2.54" x2="25.4" y2="1.905" width="0.1524" layer="21"/>
<wire x1="25.4" y1="-1.905" x2="24.765" y2="-2.54" width="0.1524" layer="21"/>
<wire x1="24.765" y1="-2.54" x2="23.495" y2="-2.54" width="0.1524" layer="21"/>
<wire x1="22.86" y1="-1.905" x2="23.495" y2="-2.54" width="0.1524" layer="21"/>
<wire x1="25.4" y1="1.905" x2="25.4" y2="-1.905" width="0.1524" layer="21"/>
<pad name="1" x="-24.13" y="-1.27" drill="1.016" shape="octagon"/>
<pad name="2" x="-24.13" y="1.27" drill="1.016" shape="octagon"/>
<pad name="3" x="-21.59" y="-1.27" drill="1.016" shape="octagon"/>
<pad name="4" x="-21.59" y="1.27" drill="1.016" shape="octagon"/>
<pad name="5" x="-19.05" y="-1.27" drill="1.016" shape="octagon"/>
<pad name="6" x="-19.05" y="1.27" drill="1.016" shape="octagon"/>
<pad name="7" x="-16.51" y="-1.27" drill="1.016" shape="octagon"/>
<pad name="8" x="-16.51" y="1.27" drill="1.016" shape="octagon"/>
<pad name="9" x="-13.97" y="-1.27" drill="1.016" shape="octagon"/>
<pad name="10" x="-13.97" y="1.27" drill="1.016" shape="octagon"/>
<pad name="11" x="-11.43" y="-1.27" drill="1.016" shape="octagon"/>
<pad name="12" x="-11.43" y="1.27" drill="1.016" shape="octagon"/>
<pad name="13" x="-8.89" y="-1.27" drill="1.016" shape="octagon"/>
<pad name="14" x="-8.89" y="1.27" drill="1.016" shape="octagon"/>
<pad name="15" x="-6.35" y="-1.27" drill="1.016" shape="octagon"/>
<pad name="16" x="-6.35" y="1.27" drill="1.016" shape="octagon"/>
<pad name="17" x="-3.81" y="-1.27" drill="1.016" shape="octagon"/>
<pad name="18" x="-3.81" y="1.27" drill="1.016" shape="octagon"/>
<pad name="19" x="-1.27" y="-1.27" drill="1.016" shape="octagon"/>
<pad name="20" x="-1.27" y="1.27" drill="1.016" shape="octagon"/>
<pad name="21" x="1.27" y="-1.27" drill="1.016" shape="octagon"/>
<pad name="22" x="1.27" y="1.27" drill="1.016" shape="octagon"/>
<pad name="23" x="3.81" y="-1.27" drill="1.016" shape="octagon"/>
<pad name="24" x="3.81" y="1.27" drill="1.016" shape="octagon"/>
<pad name="25" x="6.35" y="-1.27" drill="1.016" shape="octagon"/>
<pad name="26" x="6.35" y="1.27" drill="1.016" shape="octagon"/>
<pad name="27" x="8.89" y="-1.27" drill="1.016" shape="octagon"/>
<pad name="28" x="8.89" y="1.27" drill="1.016" shape="octagon"/>
<pad name="29" x="11.43" y="-1.27" drill="1.016" shape="octagon"/>
<pad name="30" x="11.43" y="1.27" drill="1.016" shape="octagon"/>
<pad name="31" x="13.97" y="-1.27" drill="1.016" shape="octagon"/>
<pad name="32" x="13.97" y="1.27" drill="1.016" shape="octagon"/>
<pad name="33" x="16.51" y="-1.27" drill="1.016" shape="octagon"/>
<pad name="34" x="16.51" y="1.27" drill="1.016" shape="octagon"/>
<pad name="35" x="19.05" y="-1.27" drill="1.016" shape="octagon"/>
<pad name="36" x="19.05" y="1.27" drill="1.016" shape="octagon"/>
<pad name="37" x="21.59" y="-1.27" drill="1.016" shape="octagon"/>
<pad name="38" x="21.59" y="1.27" drill="1.016" shape="octagon"/>
<pad name="39" x="24.13" y="-1.27" drill="1.016" shape="octagon"/>
<pad name="40" x="24.13" y="1.27" drill="1.016" shape="octagon"/>
<text x="-25.4" y="3.175" size="1.27" layer="25" ratio="10">&gt;NAME</text>
<text x="-25.4" y="-4.445" size="1.27" layer="27">&gt;VALUE</text>
<rectangle x1="-24.384" y1="-1.524" x2="-23.876" y2="-1.016" layer="51"/>
<rectangle x1="-24.384" y1="1.016" x2="-23.876" y2="1.524" layer="51"/>
<rectangle x1="-21.844" y1="1.016" x2="-21.336" y2="1.524" layer="51"/>
<rectangle x1="-21.844" y1="-1.524" x2="-21.336" y2="-1.016" layer="51"/>
<rectangle x1="-19.304" y1="1.016" x2="-18.796" y2="1.524" layer="51"/>
<rectangle x1="-19.304" y1="-1.524" x2="-18.796" y2="-1.016" layer="51"/>
<rectangle x1="-16.764" y1="1.016" x2="-16.256" y2="1.524" layer="51"/>
<rectangle x1="-14.224" y1="1.016" x2="-13.716" y2="1.524" layer="51"/>
<rectangle x1="-11.684" y1="1.016" x2="-11.176" y2="1.524" layer="51"/>
<rectangle x1="-16.764" y1="-1.524" x2="-16.256" y2="-1.016" layer="51"/>
<rectangle x1="-14.224" y1="-1.524" x2="-13.716" y2="-1.016" layer="51"/>
<rectangle x1="-11.684" y1="-1.524" x2="-11.176" y2="-1.016" layer="51"/>
<rectangle x1="-9.144" y1="1.016" x2="-8.636" y2="1.524" layer="51"/>
<rectangle x1="-9.144" y1="-1.524" x2="-8.636" y2="-1.016" layer="51"/>
<rectangle x1="-6.604" y1="1.016" x2="-6.096" y2="1.524" layer="51"/>
<rectangle x1="-6.604" y1="-1.524" x2="-6.096" y2="-1.016" layer="51"/>
<rectangle x1="-4.064" y1="1.016" x2="-3.556" y2="1.524" layer="51"/>
<rectangle x1="-4.064" y1="-1.524" x2="-3.556" y2="-1.016" layer="51"/>
<rectangle x1="-1.524" y1="1.016" x2="-1.016" y2="1.524" layer="51"/>
<rectangle x1="-1.524" y1="-1.524" x2="-1.016" y2="-1.016" layer="51"/>
<rectangle x1="1.016" y1="1.016" x2="1.524" y2="1.524" layer="51"/>
<rectangle x1="1.016" y1="-1.524" x2="1.524" y2="-1.016" layer="51"/>
<rectangle x1="3.556" y1="1.016" x2="4.064" y2="1.524" layer="51"/>
<rectangle x1="3.556" y1="-1.524" x2="4.064" y2="-1.016" layer="51"/>
<rectangle x1="6.096" y1="1.016" x2="6.604" y2="1.524" layer="51"/>
<rectangle x1="6.096" y1="-1.524" x2="6.604" y2="-1.016" layer="51"/>
<rectangle x1="8.636" y1="1.016" x2="9.144" y2="1.524" layer="51"/>
<rectangle x1="8.636" y1="-1.524" x2="9.144" y2="-1.016" layer="51"/>
<rectangle x1="11.176" y1="1.016" x2="11.684" y2="1.524" layer="51"/>
<rectangle x1="11.176" y1="-1.524" x2="11.684" y2="-1.016" layer="51"/>
<rectangle x1="13.716" y1="1.016" x2="14.224" y2="1.524" layer="51"/>
<rectangle x1="13.716" y1="-1.524" x2="14.224" y2="-1.016" layer="51"/>
<rectangle x1="16.256" y1="1.016" x2="16.764" y2="1.524" layer="51"/>
<rectangle x1="16.256" y1="-1.524" x2="16.764" y2="-1.016" layer="51"/>
<rectangle x1="18.796" y1="1.016" x2="19.304" y2="1.524" layer="51"/>
<rectangle x1="18.796" y1="-1.524" x2="19.304" y2="-1.016" layer="51"/>
<rectangle x1="21.336" y1="1.016" x2="21.844" y2="1.524" layer="51"/>
<rectangle x1="21.336" y1="-1.524" x2="21.844" y2="-1.016" layer="51"/>
<rectangle x1="23.876" y1="1.016" x2="24.384" y2="1.524" layer="51"/>
<rectangle x1="23.876" y1="-1.524" x2="24.384" y2="-1.016" layer="51"/>
</package>
<package name="2X20/90" urn="urn:adsk.eagle:footprint:22316/1" library_version="5">
<description>&lt;b&gt;PIN HEADER&lt;/b&gt;</description>
<wire x1="-25.4" y1="-1.905" x2="-22.86" y2="-1.905" width="0.1524" layer="21"/>
<wire x1="-22.86" y1="-1.905" x2="-22.86" y2="0.635" width="0.1524" layer="21"/>
<wire x1="-22.86" y1="0.635" x2="-25.4" y2="0.635" width="0.1524" layer="21"/>
<wire x1="-25.4" y1="0.635" x2="-25.4" y2="-1.905" width="0.1524" layer="21"/>
<wire x1="-24.13" y1="6.985" x2="-24.13" y2="1.27" width="0.762" layer="21"/>
<wire x1="-22.86" y1="-1.905" x2="-20.32" y2="-1.905" width="0.1524" layer="21"/>
<wire x1="-20.32" y1="-1.905" x2="-20.32" y2="0.635" width="0.1524" layer="21"/>
<wire x1="-20.32" y1="0.635" x2="-22.86" y2="0.635" width="0.1524" layer="21"/>
<wire x1="-21.59" y1="6.985" x2="-21.59" y2="1.27" width="0.762" layer="21"/>
<wire x1="-20.32" y1="-1.905" x2="-17.78" y2="-1.905" width="0.1524" layer="21"/>
<wire x1="-17.78" y1="-1.905" x2="-17.78" y2="0.635" width="0.1524" layer="21"/>
<wire x1="-17.78" y1="0.635" x2="-20.32" y2="0.635" width="0.1524" layer="21"/>
<wire x1="-19.05" y1="6.985" x2="-19.05" y2="1.27" width="0.762" layer="21"/>
<wire x1="-17.78" y1="-1.905" x2="-15.24" y2="-1.905" width="0.1524" layer="21"/>
<wire x1="-15.24" y1="-1.905" x2="-15.24" y2="0.635" width="0.1524" layer="21"/>
<wire x1="-15.24" y1="0.635" x2="-17.78" y2="0.635" width="0.1524" layer="21"/>
<wire x1="-16.51" y1="6.985" x2="-16.51" y2="1.27" width="0.762" layer="21"/>
<wire x1="-15.24" y1="-1.905" x2="-12.7" y2="-1.905" width="0.1524" layer="21"/>
<wire x1="-12.7" y1="-1.905" x2="-12.7" y2="0.635" width="0.1524" layer="21"/>
<wire x1="-12.7" y1="0.635" x2="-15.24" y2="0.635" width="0.1524" layer="21"/>
<wire x1="-13.97" y1="6.985" x2="-13.97" y2="1.27" width="0.762" layer="21"/>
<wire x1="-12.7" y1="-1.905" x2="-10.16" y2="-1.905" width="0.1524" layer="21"/>
<wire x1="-10.16" y1="-1.905" x2="-10.16" y2="0.635" width="0.1524" layer="21"/>
<wire x1="-10.16" y1="0.635" x2="-12.7" y2="0.635" width="0.1524" layer="21"/>
<wire x1="-11.43" y1="6.985" x2="-11.43" y2="1.27" width="0.762" layer="21"/>
<wire x1="-10.16" y1="-1.905" x2="-7.62" y2="-1.905" width="0.1524" layer="21"/>
<wire x1="-7.62" y1="-1.905" x2="-7.62" y2="0.635" width="0.1524" layer="21"/>
<wire x1="-7.62" y1="0.635" x2="-10.16" y2="0.635" width="0.1524" layer="21"/>
<wire x1="-8.89" y1="6.985" x2="-8.89" y2="1.27" width="0.762" layer="21"/>
<wire x1="-7.62" y1="-1.905" x2="-5.08" y2="-1.905" width="0.1524" layer="21"/>
<wire x1="-5.08" y1="-1.905" x2="-5.08" y2="0.635" width="0.1524" layer="21"/>
<wire x1="-5.08" y1="0.635" x2="-7.62" y2="0.635" width="0.1524" layer="21"/>
<wire x1="-6.35" y1="6.985" x2="-6.35" y2="1.27" width="0.762" layer="21"/>
<wire x1="-5.08" y1="-1.905" x2="-2.54" y2="-1.905" width="0.1524" layer="21"/>
<wire x1="-2.54" y1="-1.905" x2="-2.54" y2="0.635" width="0.1524" layer="21"/>
<wire x1="-2.54" y1="0.635" x2="-5.08" y2="0.635" width="0.1524" layer="21"/>
<wire x1="-3.81" y1="6.985" x2="-3.81" y2="1.27" width="0.762" layer="21"/>
<wire x1="-2.54" y1="-1.905" x2="0" y2="-1.905" width="0.1524" layer="21"/>
<wire x1="0" y1="-1.905" x2="0" y2="0.635" width="0.1524" layer="21"/>
<wire x1="0" y1="0.635" x2="-2.54" y2="0.635" width="0.1524" layer="21"/>
<wire x1="-1.27" y1="6.985" x2="-1.27" y2="1.27" width="0.762" layer="21"/>
<wire x1="0" y1="-1.905" x2="2.54" y2="-1.905" width="0.1524" layer="21"/>
<wire x1="2.54" y1="-1.905" x2="2.54" y2="0.635" width="0.1524" layer="21"/>
<wire x1="2.54" y1="0.635" x2="0" y2="0.635" width="0.1524" layer="21"/>
<wire x1="1.27" y1="6.985" x2="1.27" y2="1.27" width="0.762" layer="21"/>
<wire x1="2.54" y1="-1.905" x2="5.08" y2="-1.905" width="0.1524" layer="21"/>
<wire x1="5.08" y1="-1.905" x2="5.08" y2="0.635" width="0.1524" layer="21"/>
<wire x1="5.08" y1="0.635" x2="2.54" y2="0.635" width="0.1524" layer="21"/>
<wire x1="3.81" y1="6.985" x2="3.81" y2="1.27" width="0.762" layer="21"/>
<wire x1="5.08" y1="-1.905" x2="7.62" y2="-1.905" width="0.1524" layer="21"/>
<wire x1="7.62" y1="-1.905" x2="7.62" y2="0.635" width="0.1524" layer="21"/>
<wire x1="7.62" y1="0.635" x2="5.08" y2="0.635" width="0.1524" layer="21"/>
<wire x1="6.35" y1="6.985" x2="6.35" y2="1.27" width="0.762" layer="21"/>
<wire x1="7.62" y1="-1.905" x2="10.16" y2="-1.905" width="0.1524" layer="21"/>
<wire x1="10.16" y1="-1.905" x2="10.16" y2="0.635" width="0.1524" layer="21"/>
<wire x1="10.16" y1="0.635" x2="7.62" y2="0.635" width="0.1524" layer="21"/>
<wire x1="8.89" y1="6.985" x2="8.89" y2="1.27" width="0.762" layer="21"/>
<wire x1="10.16" y1="-1.905" x2="12.7" y2="-1.905" width="0.1524" layer="21"/>
<wire x1="12.7" y1="-1.905" x2="12.7" y2="0.635" width="0.1524" layer="21"/>
<wire x1="12.7" y1="0.635" x2="10.16" y2="0.635" width="0.1524" layer="21"/>
<wire x1="11.43" y1="6.985" x2="11.43" y2="1.27" width="0.762" layer="21"/>
<wire x1="12.7" y1="-1.905" x2="15.24" y2="-1.905" width="0.1524" layer="21"/>
<wire x1="15.24" y1="-1.905" x2="15.24" y2="0.635" width="0.1524" layer="21"/>
<wire x1="15.24" y1="0.635" x2="12.7" y2="0.635" width="0.1524" layer="21"/>
<wire x1="13.97" y1="6.985" x2="13.97" y2="1.27" width="0.762" layer="21"/>
<wire x1="15.24" y1="-1.905" x2="17.78" y2="-1.905" width="0.1524" layer="21"/>
<wire x1="17.78" y1="-1.905" x2="17.78" y2="0.635" width="0.1524" layer="21"/>
<wire x1="17.78" y1="0.635" x2="15.24" y2="0.635" width="0.1524" layer="21"/>
<wire x1="16.51" y1="6.985" x2="16.51" y2="1.27" width="0.762" layer="21"/>
<wire x1="17.78" y1="-1.905" x2="20.32" y2="-1.905" width="0.1524" layer="21"/>
<wire x1="20.32" y1="-1.905" x2="20.32" y2="0.635" width="0.1524" layer="21"/>
<wire x1="20.32" y1="0.635" x2="17.78" y2="0.635" width="0.1524" layer="21"/>
<wire x1="19.05" y1="6.985" x2="19.05" y2="1.27" width="0.762" layer="21"/>
<wire x1="20.32" y1="-1.905" x2="22.86" y2="-1.905" width="0.1524" layer="21"/>
<wire x1="22.86" y1="-1.905" x2="22.86" y2="0.635" width="0.1524" layer="21"/>
<wire x1="22.86" y1="0.635" x2="20.32" y2="0.635" width="0.1524" layer="21"/>
<wire x1="21.59" y1="6.985" x2="21.59" y2="1.27" width="0.762" layer="21"/>
<wire x1="22.86" y1="-1.905" x2="25.4" y2="-1.905" width="0.1524" layer="21"/>
<wire x1="25.4" y1="-1.905" x2="25.4" y2="0.635" width="0.1524" layer="21"/>
<wire x1="25.4" y1="0.635" x2="22.86" y2="0.635" width="0.1524" layer="21"/>
<wire x1="24.13" y1="6.985" x2="24.13" y2="1.27" width="0.762" layer="21"/>
<pad name="2" x="-24.13" y="-3.81" drill="1.016" shape="octagon"/>
<pad name="4" x="-21.59" y="-3.81" drill="1.016" shape="octagon"/>
<pad name="6" x="-19.05" y="-3.81" drill="1.016" shape="octagon"/>
<pad name="8" x="-16.51" y="-3.81" drill="1.016" shape="octagon"/>
<pad name="10" x="-13.97" y="-3.81" drill="1.016" shape="octagon"/>
<pad name="12" x="-11.43" y="-3.81" drill="1.016" shape="octagon"/>
<pad name="14" x="-8.89" y="-3.81" drill="1.016" shape="octagon"/>
<pad name="16" x="-6.35" y="-3.81" drill="1.016" shape="octagon"/>
<pad name="18" x="-3.81" y="-3.81" drill="1.016" shape="octagon"/>
<pad name="20" x="-1.27" y="-3.81" drill="1.016" shape="octagon"/>
<pad name="22" x="1.27" y="-3.81" drill="1.016" shape="octagon"/>
<pad name="24" x="3.81" y="-3.81" drill="1.016" shape="octagon"/>
<pad name="26" x="6.35" y="-3.81" drill="1.016" shape="octagon"/>
<pad name="28" x="8.89" y="-3.81" drill="1.016" shape="octagon"/>
<pad name="30" x="11.43" y="-3.81" drill="1.016" shape="octagon"/>
<pad name="32" x="13.97" y="-3.81" drill="1.016" shape="octagon"/>
<pad name="34" x="16.51" y="-3.81" drill="1.016" shape="octagon"/>
<pad name="36" x="19.05" y="-3.81" drill="1.016" shape="octagon"/>
<pad name="38" x="21.59" y="-3.81" drill="1.016" shape="octagon"/>
<pad name="1" x="-24.13" y="-6.35" drill="1.016" shape="octagon"/>
<pad name="3" x="-21.59" y="-6.35" drill="1.016" shape="octagon"/>
<pad name="5" x="-19.05" y="-6.35" drill="1.016" shape="octagon"/>
<pad name="7" x="-16.51" y="-6.35" drill="1.016" shape="octagon"/>
<pad name="9" x="-13.97" y="-6.35" drill="1.016" shape="octagon"/>
<pad name="11" x="-11.43" y="-6.35" drill="1.016" shape="octagon"/>
<pad name="13" x="-8.89" y="-6.35" drill="1.016" shape="octagon"/>
<pad name="15" x="-6.35" y="-6.35" drill="1.016" shape="octagon"/>
<pad name="17" x="-3.81" y="-6.35" drill="1.016" shape="octagon"/>
<pad name="19" x="-1.27" y="-6.35" drill="1.016" shape="octagon"/>
<pad name="21" x="1.27" y="-6.35" drill="1.016" shape="octagon"/>
<pad name="23" x="3.81" y="-6.35" drill="1.016" shape="octagon"/>
<pad name="25" x="6.35" y="-6.35" drill="1.016" shape="octagon"/>
<pad name="27" x="8.89" y="-6.35" drill="1.016" shape="octagon"/>
<pad name="29" x="11.43" y="-6.35" drill="1.016" shape="octagon"/>
<pad name="31" x="13.97" y="-6.35" drill="1.016" shape="octagon"/>
<pad name="33" x="16.51" y="-6.35" drill="1.016" shape="octagon"/>
<pad name="35" x="19.05" y="-6.35" drill="1.016" shape="octagon"/>
<pad name="37" x="21.59" y="-6.35" drill="1.016" shape="octagon"/>
<pad name="40" x="24.13" y="-3.81" drill="1.016" shape="octagon"/>
<pad name="39" x="24.13" y="-6.35" drill="1.016" shape="octagon"/>
<text x="-26.035" y="-3.81" size="1.27" layer="25" ratio="10" rot="R90">&gt;NAME</text>
<text x="27.305" y="-3.81" size="1.27" layer="27" rot="R90">&gt;VALUE</text>
<rectangle x1="-24.511" y1="0.635" x2="-23.749" y2="1.143" layer="21"/>
<rectangle x1="-21.971" y1="0.635" x2="-21.209" y2="1.143" layer="21"/>
<rectangle x1="-19.431" y1="0.635" x2="-18.669" y2="1.143" layer="21"/>
<rectangle x1="-16.891" y1="0.635" x2="-16.129" y2="1.143" layer="21"/>
<rectangle x1="-14.351" y1="0.635" x2="-13.589" y2="1.143" layer="21"/>
<rectangle x1="-11.811" y1="0.635" x2="-11.049" y2="1.143" layer="21"/>
<rectangle x1="-9.271" y1="0.635" x2="-8.509" y2="1.143" layer="21"/>
<rectangle x1="-6.731" y1="0.635" x2="-5.969" y2="1.143" layer="21"/>
<rectangle x1="-4.191" y1="0.635" x2="-3.429" y2="1.143" layer="21"/>
<rectangle x1="-1.651" y1="0.635" x2="-0.889" y2="1.143" layer="21"/>
<rectangle x1="0.889" y1="0.635" x2="1.651" y2="1.143" layer="21"/>
<rectangle x1="3.429" y1="0.635" x2="4.191" y2="1.143" layer="21"/>
<rectangle x1="5.969" y1="0.635" x2="6.731" y2="1.143" layer="21"/>
<rectangle x1="8.509" y1="0.635" x2="9.271" y2="1.143" layer="21"/>
<rectangle x1="11.049" y1="0.635" x2="11.811" y2="1.143" layer="21"/>
<rectangle x1="13.589" y1="0.635" x2="14.351" y2="1.143" layer="21"/>
<rectangle x1="16.129" y1="0.635" x2="16.891" y2="1.143" layer="21"/>
<rectangle x1="18.669" y1="0.635" x2="19.431" y2="1.143" layer="21"/>
<rectangle x1="21.209" y1="0.635" x2="21.971" y2="1.143" layer="21"/>
<rectangle x1="23.749" y1="0.635" x2="24.511" y2="1.143" layer="21"/>
<rectangle x1="-24.511" y1="-2.921" x2="-23.749" y2="-1.905" layer="21"/>
<rectangle x1="-21.971" y1="-2.921" x2="-21.209" y2="-1.905" layer="21"/>
<rectangle x1="-24.511" y1="-5.461" x2="-23.749" y2="-4.699" layer="21"/>
<rectangle x1="-24.511" y1="-4.699" x2="-23.749" y2="-2.921" layer="51"/>
<rectangle x1="-21.971" y1="-4.699" x2="-21.209" y2="-2.921" layer="51"/>
<rectangle x1="-21.971" y1="-5.461" x2="-21.209" y2="-4.699" layer="21"/>
<rectangle x1="-19.431" y1="-2.921" x2="-18.669" y2="-1.905" layer="21"/>
<rectangle x1="-16.891" y1="-2.921" x2="-16.129" y2="-1.905" layer="21"/>
<rectangle x1="-19.431" y1="-5.461" x2="-18.669" y2="-4.699" layer="21"/>
<rectangle x1="-19.431" y1="-4.699" x2="-18.669" y2="-2.921" layer="51"/>
<rectangle x1="-16.891" y1="-4.699" x2="-16.129" y2="-2.921" layer="51"/>
<rectangle x1="-16.891" y1="-5.461" x2="-16.129" y2="-4.699" layer="21"/>
<rectangle x1="-14.351" y1="-2.921" x2="-13.589" y2="-1.905" layer="21"/>
<rectangle x1="-14.351" y1="-5.461" x2="-13.589" y2="-4.699" layer="21"/>
<rectangle x1="-14.351" y1="-4.699" x2="-13.589" y2="-2.921" layer="51"/>
<rectangle x1="-11.811" y1="-2.921" x2="-11.049" y2="-1.905" layer="21"/>
<rectangle x1="-9.271" y1="-2.921" x2="-8.509" y2="-1.905" layer="21"/>
<rectangle x1="-11.811" y1="-5.461" x2="-11.049" y2="-4.699" layer="21"/>
<rectangle x1="-11.811" y1="-4.699" x2="-11.049" y2="-2.921" layer="51"/>
<rectangle x1="-9.271" y1="-4.699" x2="-8.509" y2="-2.921" layer="51"/>
<rectangle x1="-9.271" y1="-5.461" x2="-8.509" y2="-4.699" layer="21"/>
<rectangle x1="-6.731" y1="-2.921" x2="-5.969" y2="-1.905" layer="21"/>
<rectangle x1="-4.191" y1="-2.921" x2="-3.429" y2="-1.905" layer="21"/>
<rectangle x1="-6.731" y1="-5.461" x2="-5.969" y2="-4.699" layer="21"/>
<rectangle x1="-6.731" y1="-4.699" x2="-5.969" y2="-2.921" layer="51"/>
<rectangle x1="-4.191" y1="-4.699" x2="-3.429" y2="-2.921" layer="51"/>
<rectangle x1="-4.191" y1="-5.461" x2="-3.429" y2="-4.699" layer="21"/>
<rectangle x1="-1.651" y1="-2.921" x2="-0.889" y2="-1.905" layer="21"/>
<rectangle x1="-1.651" y1="-5.461" x2="-0.889" y2="-4.699" layer="21"/>
<rectangle x1="-1.651" y1="-4.699" x2="-0.889" y2="-2.921" layer="51"/>
<rectangle x1="0.889" y1="-2.921" x2="1.651" y2="-1.905" layer="21"/>
<rectangle x1="3.429" y1="-2.921" x2="4.191" y2="-1.905" layer="21"/>
<rectangle x1="0.889" y1="-5.461" x2="1.651" y2="-4.699" layer="21"/>
<rectangle x1="0.889" y1="-4.699" x2="1.651" y2="-2.921" layer="51"/>
<rectangle x1="3.429" y1="-4.699" x2="4.191" y2="-2.921" layer="51"/>
<rectangle x1="3.429" y1="-5.461" x2="4.191" y2="-4.699" layer="21"/>
<rectangle x1="5.969" y1="-2.921" x2="6.731" y2="-1.905" layer="21"/>
<rectangle x1="8.509" y1="-2.921" x2="9.271" y2="-1.905" layer="21"/>
<rectangle x1="5.969" y1="-5.461" x2="6.731" y2="-4.699" layer="21"/>
<rectangle x1="5.969" y1="-4.699" x2="6.731" y2="-2.921" layer="51"/>
<rectangle x1="8.509" y1="-4.699" x2="9.271" y2="-2.921" layer="51"/>
<rectangle x1="8.509" y1="-5.461" x2="9.271" y2="-4.699" layer="21"/>
<rectangle x1="11.049" y1="-2.921" x2="11.811" y2="-1.905" layer="21"/>
<rectangle x1="11.049" y1="-5.461" x2="11.811" y2="-4.699" layer="21"/>
<rectangle x1="11.049" y1="-4.699" x2="11.811" y2="-2.921" layer="51"/>
<rectangle x1="13.589" y1="-2.921" x2="14.351" y2="-1.905" layer="21"/>
<rectangle x1="16.129" y1="-2.921" x2="16.891" y2="-1.905" layer="21"/>
<rectangle x1="13.589" y1="-5.461" x2="14.351" y2="-4.699" layer="21"/>
<rectangle x1="13.589" y1="-4.699" x2="14.351" y2="-2.921" layer="51"/>
<rectangle x1="16.129" y1="-4.699" x2="16.891" y2="-2.921" layer="51"/>
<rectangle x1="16.129" y1="-5.461" x2="16.891" y2="-4.699" layer="21"/>
<rectangle x1="18.669" y1="-2.921" x2="19.431" y2="-1.905" layer="21"/>
<rectangle x1="21.209" y1="-2.921" x2="21.971" y2="-1.905" layer="21"/>
<rectangle x1="18.669" y1="-5.461" x2="19.431" y2="-4.699" layer="21"/>
<rectangle x1="18.669" y1="-4.699" x2="19.431" y2="-2.921" layer="51"/>
<rectangle x1="21.209" y1="-4.699" x2="21.971" y2="-2.921" layer="51"/>
<rectangle x1="21.209" y1="-5.461" x2="21.971" y2="-4.699" layer="21"/>
<rectangle x1="23.749" y1="-2.921" x2="24.511" y2="-1.905" layer="21"/>
<rectangle x1="23.749" y1="-5.461" x2="24.511" y2="-4.699" layer="21"/>
<rectangle x1="23.749" y1="-4.699" x2="24.511" y2="-2.921" layer="51"/>
</package>
<package name="2X05" urn="urn:adsk.eagle:footprint:22358/1" library_version="4">
<description>&lt;b&gt;PIN HEADER&lt;/b&gt;</description>
<wire x1="-6.35" y1="-1.905" x2="-5.715" y2="-2.54" width="0.1524" layer="21"/>
<wire x1="-4.445" y1="-2.54" x2="-3.81" y2="-1.905" width="0.1524" layer="21"/>
<wire x1="-3.81" y1="-1.905" x2="-3.175" y2="-2.54" width="0.1524" layer="21"/>
<wire x1="-1.905" y1="-2.54" x2="-1.27" y2="-1.905" width="0.1524" layer="21"/>
<wire x1="-1.27" y1="-1.905" x2="-0.635" y2="-2.54" width="0.1524" layer="21"/>
<wire x1="0.635" y1="-2.54" x2="1.27" y2="-1.905" width="0.1524" layer="21"/>
<wire x1="1.27" y1="-1.905" x2="1.905" y2="-2.54" width="0.1524" layer="21"/>
<wire x1="3.175" y1="-2.54" x2="3.81" y2="-1.905" width="0.1524" layer="21"/>
<wire x1="-6.35" y1="-1.905" x2="-6.35" y2="1.905" width="0.1524" layer="21"/>
<wire x1="-6.35" y1="1.905" x2="-5.715" y2="2.54" width="0.1524" layer="21"/>
<wire x1="-5.715" y1="2.54" x2="-4.445" y2="2.54" width="0.1524" layer="21"/>
<wire x1="-4.445" y1="2.54" x2="-3.81" y2="1.905" width="0.1524" layer="21"/>
<wire x1="-3.81" y1="1.905" x2="-3.175" y2="2.54" width="0.1524" layer="21"/>
<wire x1="-3.175" y1="2.54" x2="-1.905" y2="2.54" width="0.1524" layer="21"/>
<wire x1="-1.905" y1="2.54" x2="-1.27" y2="1.905" width="0.1524" layer="21"/>
<wire x1="-1.27" y1="1.905" x2="-0.635" y2="2.54" width="0.1524" layer="21"/>
<wire x1="-0.635" y1="2.54" x2="0.635" y2="2.54" width="0.1524" layer="21"/>
<wire x1="0.635" y1="2.54" x2="1.27" y2="1.905" width="0.1524" layer="21"/>
<wire x1="1.27" y1="1.905" x2="1.905" y2="2.54" width="0.1524" layer="21"/>
<wire x1="1.905" y1="2.54" x2="3.175" y2="2.54" width="0.1524" layer="21"/>
<wire x1="3.175" y1="2.54" x2="3.81" y2="1.905" width="0.1524" layer="21"/>
<wire x1="-3.81" y1="1.905" x2="-3.81" y2="-1.905" width="0.1524" layer="21"/>
<wire x1="-1.27" y1="1.905" x2="-1.27" y2="-1.905" width="0.1524" layer="21"/>
<wire x1="1.27" y1="1.905" x2="1.27" y2="-1.905" width="0.1524" layer="21"/>
<wire x1="3.81" y1="1.905" x2="3.81" y2="-1.905" width="0.1524" layer="21"/>
<wire x1="1.905" y1="-2.54" x2="3.175" y2="-2.54" width="0.1524" layer="21"/>
<wire x1="-0.635" y1="-2.54" x2="0.635" y2="-2.54" width="0.1524" layer="21"/>
<wire x1="-3.175" y1="-2.54" x2="-1.905" y2="-2.54" width="0.1524" layer="21"/>
<wire x1="-5.715" y1="-2.54" x2="-4.445" y2="-2.54" width="0.1524" layer="21"/>
<wire x1="3.81" y1="-1.905" x2="4.445" y2="-2.54" width="0.1524" layer="21"/>
<wire x1="5.715" y1="-2.54" x2="6.35" y2="-1.905" width="0.1524" layer="21"/>
<wire x1="3.81" y1="1.905" x2="4.445" y2="2.54" width="0.1524" layer="21"/>
<wire x1="4.445" y1="2.54" x2="5.715" y2="2.54" width="0.1524" layer="21"/>
<wire x1="5.715" y1="2.54" x2="6.35" y2="1.905" width="0.1524" layer="21"/>
<wire x1="6.35" y1="1.905" x2="6.35" y2="-1.905" width="0.1524" layer="21"/>
<wire x1="4.445" y1="-2.54" x2="5.715" y2="-2.54" width="0.1524" layer="21"/>
<pad name="1" x="-5.08" y="-1.27" drill="1.016" shape="octagon"/>
<pad name="2" x="-5.08" y="1.27" drill="1.016" shape="octagon"/>
<pad name="3" x="-2.54" y="-1.27" drill="1.016" shape="octagon"/>
<pad name="4" x="-2.54" y="1.27" drill="1.016" shape="octagon"/>
<pad name="5" x="0" y="-1.27" drill="1.016" shape="octagon"/>
<pad name="6" x="0" y="1.27" drill="1.016" shape="octagon"/>
<pad name="7" x="2.54" y="-1.27" drill="1.016" shape="octagon"/>
<pad name="8" x="2.54" y="1.27" drill="1.016" shape="octagon"/>
<pad name="9" x="5.08" y="-1.27" drill="1.016" shape="octagon"/>
<pad name="10" x="5.08" y="1.27" drill="1.016" shape="octagon"/>
<text x="-6.35" y="3.175" size="1.27" layer="25" ratio="10">&gt;NAME</text>
<text x="-6.35" y="-4.445" size="1.27" layer="27">&gt;VALUE</text>
<rectangle x1="-5.334" y1="-1.524" x2="-4.826" y2="-1.016" layer="51"/>
<rectangle x1="-5.334" y1="1.016" x2="-4.826" y2="1.524" layer="51"/>
<rectangle x1="-2.794" y1="1.016" x2="-2.286" y2="1.524" layer="51"/>
<rectangle x1="-2.794" y1="-1.524" x2="-2.286" y2="-1.016" layer="51"/>
<rectangle x1="-0.254" y1="1.016" x2="0.254" y2="1.524" layer="51"/>
<rectangle x1="-0.254" y1="-1.524" x2="0.254" y2="-1.016" layer="51"/>
<rectangle x1="2.286" y1="1.016" x2="2.794" y2="1.524" layer="51"/>
<rectangle x1="2.286" y1="-1.524" x2="2.794" y2="-1.016" layer="51"/>
<rectangle x1="4.826" y1="1.016" x2="5.334" y2="1.524" layer="51"/>
<rectangle x1="4.826" y1="-1.524" x2="5.334" y2="-1.016" layer="51"/>
</package>
<package name="2X05/90" urn="urn:adsk.eagle:footprint:22359/1" library_version="4">
<description>&lt;b&gt;PIN HEADER&lt;/b&gt;</description>
<wire x1="-6.35" y1="-1.905" x2="-3.81" y2="-1.905" width="0.1524" layer="21"/>
<wire x1="-3.81" y1="-1.905" x2="-3.81" y2="0.635" width="0.1524" layer="21"/>
<wire x1="-3.81" y1="0.635" x2="-6.35" y2="0.635" width="0.1524" layer="21"/>
<wire x1="-6.35" y1="0.635" x2="-6.35" y2="-1.905" width="0.1524" layer="21"/>
<wire x1="-5.08" y1="6.985" x2="-5.08" y2="1.27" width="0.762" layer="21"/>
<wire x1="-3.81" y1="-1.905" x2="-1.27" y2="-1.905" width="0.1524" layer="21"/>
<wire x1="-1.27" y1="-1.905" x2="-1.27" y2="0.635" width="0.1524" layer="21"/>
<wire x1="-1.27" y1="0.635" x2="-3.81" y2="0.635" width="0.1524" layer="21"/>
<wire x1="-2.54" y1="6.985" x2="-2.54" y2="1.27" width="0.762" layer="21"/>
<wire x1="-1.27" y1="-1.905" x2="1.27" y2="-1.905" width="0.1524" layer="21"/>
<wire x1="1.27" y1="-1.905" x2="1.27" y2="0.635" width="0.1524" layer="21"/>
<wire x1="1.27" y1="0.635" x2="-1.27" y2="0.635" width="0.1524" layer="21"/>
<wire x1="0" y1="6.985" x2="0" y2="1.27" width="0.762" layer="21"/>
<wire x1="1.27" y1="-1.905" x2="3.81" y2="-1.905" width="0.1524" layer="21"/>
<wire x1="3.81" y1="-1.905" x2="3.81" y2="0.635" width="0.1524" layer="21"/>
<wire x1="3.81" y1="0.635" x2="1.27" y2="0.635" width="0.1524" layer="21"/>
<wire x1="2.54" y1="6.985" x2="2.54" y2="1.27" width="0.762" layer="21"/>
<wire x1="3.81" y1="-1.905" x2="6.35" y2="-1.905" width="0.1524" layer="21"/>
<wire x1="6.35" y1="-1.905" x2="6.35" y2="0.635" width="0.1524" layer="21"/>
<wire x1="6.35" y1="0.635" x2="3.81" y2="0.635" width="0.1524" layer="21"/>
<wire x1="5.08" y1="6.985" x2="5.08" y2="1.27" width="0.762" layer="21"/>
<pad name="2" x="-5.08" y="-3.81" drill="1.016" shape="octagon"/>
<pad name="4" x="-2.54" y="-3.81" drill="1.016" shape="octagon"/>
<pad name="6" x="0" y="-3.81" drill="1.016" shape="octagon"/>
<pad name="8" x="2.54" y="-3.81" drill="1.016" shape="octagon"/>
<pad name="10" x="5.08" y="-3.81" drill="1.016" shape="octagon"/>
<pad name="1" x="-5.08" y="-6.35" drill="1.016" shape="octagon"/>
<pad name="3" x="-2.54" y="-6.35" drill="1.016" shape="octagon"/>
<pad name="5" x="0" y="-6.35" drill="1.016" shape="octagon"/>
<pad name="7" x="2.54" y="-6.35" drill="1.016" shape="octagon"/>
<pad name="9" x="5.08" y="-6.35" drill="1.016" shape="octagon"/>
<text x="-6.985" y="-3.81" size="1.27" layer="25" ratio="10" rot="R90">&gt;NAME</text>
<text x="8.255" y="-3.81" size="1.27" layer="27" rot="R90">&gt;VALUE</text>
<rectangle x1="-5.461" y1="0.635" x2="-4.699" y2="1.143" layer="21"/>
<rectangle x1="-2.921" y1="0.635" x2="-2.159" y2="1.143" layer="21"/>
<rectangle x1="-0.381" y1="0.635" x2="0.381" y2="1.143" layer="21"/>
<rectangle x1="2.159" y1="0.635" x2="2.921" y2="1.143" layer="21"/>
<rectangle x1="4.699" y1="0.635" x2="5.461" y2="1.143" layer="21"/>
<rectangle x1="-5.461" y1="-2.921" x2="-4.699" y2="-1.905" layer="21"/>
<rectangle x1="-2.921" y1="-2.921" x2="-2.159" y2="-1.905" layer="21"/>
<rectangle x1="-5.461" y1="-5.461" x2="-4.699" y2="-4.699" layer="21"/>
<rectangle x1="-5.461" y1="-4.699" x2="-4.699" y2="-2.921" layer="51"/>
<rectangle x1="-2.921" y1="-4.699" x2="-2.159" y2="-2.921" layer="51"/>
<rectangle x1="-2.921" y1="-5.461" x2="-2.159" y2="-4.699" layer="21"/>
<rectangle x1="-0.381" y1="-2.921" x2="0.381" y2="-1.905" layer="21"/>
<rectangle x1="2.159" y1="-2.921" x2="2.921" y2="-1.905" layer="21"/>
<rectangle x1="-0.381" y1="-5.461" x2="0.381" y2="-4.699" layer="21"/>
<rectangle x1="-0.381" y1="-4.699" x2="0.381" y2="-2.921" layer="51"/>
<rectangle x1="2.159" y1="-4.699" x2="2.921" y2="-2.921" layer="51"/>
<rectangle x1="2.159" y1="-5.461" x2="2.921" y2="-4.699" layer="21"/>
<rectangle x1="4.699" y1="-2.921" x2="5.461" y2="-1.905" layer="21"/>
<rectangle x1="4.699" y1="-5.461" x2="5.461" y2="-4.699" layer="21"/>
<rectangle x1="4.699" y1="-4.699" x2="5.461" y2="-2.921" layer="51"/>
</package>
<package name="1X03" urn="urn:adsk.eagle:footprint:22340/1" library_version="5">
<description>&lt;b&gt;PIN HEADER&lt;/b&gt;</description>
<wire x1="-3.175" y1="1.27" x2="-1.905" y2="1.27" width="0.1524" layer="21"/>
<wire x1="-1.905" y1="1.27" x2="-1.27" y2="0.635" width="0.1524" layer="21"/>
<wire x1="-1.27" y1="0.635" x2="-1.27" y2="-0.635" width="0.1524" layer="21"/>
<wire x1="-1.27" y1="-0.635" x2="-1.905" y2="-1.27" width="0.1524" layer="21"/>
<wire x1="-1.27" y1="0.635" x2="-0.635" y2="1.27" width="0.1524" layer="21"/>
<wire x1="-0.635" y1="1.27" x2="0.635" y2="1.27" width="0.1524" layer="21"/>
<wire x1="0.635" y1="1.27" x2="1.27" y2="0.635" width="0.1524" layer="21"/>
<wire x1="1.27" y1="0.635" x2="1.27" y2="-0.635" width="0.1524" layer="21"/>
<wire x1="1.27" y1="-0.635" x2="0.635" y2="-1.27" width="0.1524" layer="21"/>
<wire x1="0.635" y1="-1.27" x2="-0.635" y2="-1.27" width="0.1524" layer="21"/>
<wire x1="-0.635" y1="-1.27" x2="-1.27" y2="-0.635" width="0.1524" layer="21"/>
<wire x1="-3.81" y1="0.635" x2="-3.81" y2="-0.635" width="0.1524" layer="21"/>
<wire x1="-3.175" y1="1.27" x2="-3.81" y2="0.635" width="0.1524" layer="21"/>
<wire x1="-3.81" y1="-0.635" x2="-3.175" y2="-1.27" width="0.1524" layer="21"/>
<wire x1="-1.905" y1="-1.27" x2="-3.175" y2="-1.27" width="0.1524" layer="21"/>
<wire x1="1.27" y1="0.635" x2="1.905" y2="1.27" width="0.1524" layer="21"/>
<wire x1="1.905" y1="1.27" x2="3.175" y2="1.27" width="0.1524" layer="21"/>
<wire x1="3.175" y1="1.27" x2="3.81" y2="0.635" width="0.1524" layer="21"/>
<wire x1="3.81" y1="0.635" x2="3.81" y2="-0.635" width="0.1524" layer="21"/>
<wire x1="3.81" y1="-0.635" x2="3.175" y2="-1.27" width="0.1524" layer="21"/>
<wire x1="3.175" y1="-1.27" x2="1.905" y2="-1.27" width="0.1524" layer="21"/>
<wire x1="1.905" y1="-1.27" x2="1.27" y2="-0.635" width="0.1524" layer="21"/>
<pad name="1" x="-2.54" y="0" drill="1.016" shape="long" rot="R90"/>
<pad name="2" x="0" y="0" drill="1.016" shape="long" rot="R90"/>
<pad name="3" x="2.54" y="0" drill="1.016" shape="long" rot="R90"/>
<text x="-3.8862" y="1.8288" size="1.27" layer="25" ratio="10">&gt;NAME</text>
<text x="-3.81" y="-3.175" size="1.27" layer="27">&gt;VALUE</text>
<rectangle x1="-0.254" y1="-0.254" x2="0.254" y2="0.254" layer="51"/>
<rectangle x1="-2.794" y1="-0.254" x2="-2.286" y2="0.254" layer="51"/>
<rectangle x1="2.286" y1="-0.254" x2="2.794" y2="0.254" layer="51"/>
</package>
<package name="1X03/90" urn="urn:adsk.eagle:footprint:22341/1" library_version="5">
<description>&lt;b&gt;PIN HEADER&lt;/b&gt;</description>
<wire x1="-3.81" y1="-1.905" x2="-1.27" y2="-1.905" width="0.1524" layer="21"/>
<wire x1="-1.27" y1="-1.905" x2="-1.27" y2="0.635" width="0.1524" layer="21"/>
<wire x1="-1.27" y1="0.635" x2="-3.81" y2="0.635" width="0.1524" layer="21"/>
<wire x1="-3.81" y1="0.635" x2="-3.81" y2="-1.905" width="0.1524" layer="21"/>
<wire x1="-2.54" y1="6.985" x2="-2.54" y2="1.27" width="0.762" layer="21"/>
<wire x1="-1.27" y1="-1.905" x2="1.27" y2="-1.905" width="0.1524" layer="21"/>
<wire x1="1.27" y1="-1.905" x2="1.27" y2="0.635" width="0.1524" layer="21"/>
<wire x1="1.27" y1="0.635" x2="-1.27" y2="0.635" width="0.1524" layer="21"/>
<wire x1="0" y1="6.985" x2="0" y2="1.27" width="0.762" layer="21"/>
<wire x1="1.27" y1="-1.905" x2="3.81" y2="-1.905" width="0.1524" layer="21"/>
<wire x1="3.81" y1="-1.905" x2="3.81" y2="0.635" width="0.1524" layer="21"/>
<wire x1="3.81" y1="0.635" x2="1.27" y2="0.635" width="0.1524" layer="21"/>
<wire x1="2.54" y1="6.985" x2="2.54" y2="1.27" width="0.762" layer="21"/>
<pad name="1" x="-2.54" y="-3.81" drill="1.016" shape="long" rot="R90"/>
<pad name="2" x="0" y="-3.81" drill="1.016" shape="long" rot="R90"/>
<pad name="3" x="2.54" y="-3.81" drill="1.016" shape="long" rot="R90"/>
<text x="-4.445" y="-3.81" size="1.27" layer="25" ratio="10" rot="R90">&gt;NAME</text>
<text x="5.715" y="-3.81" size="1.27" layer="27" rot="R90">&gt;VALUE</text>
<rectangle x1="-2.921" y1="0.635" x2="-2.159" y2="1.143" layer="21"/>
<rectangle x1="-0.381" y1="0.635" x2="0.381" y2="1.143" layer="21"/>
<rectangle x1="2.159" y1="0.635" x2="2.921" y2="1.143" layer="21"/>
<rectangle x1="-2.921" y1="-2.921" x2="-2.159" y2="-1.905" layer="21"/>
<rectangle x1="-0.381" y1="-2.921" x2="0.381" y2="-1.905" layer="21"/>
<rectangle x1="2.159" y1="-2.921" x2="2.921" y2="-1.905" layer="21"/>
</package>
</packages>
<packages3d>
<package3d name="2X20" urn="urn:adsk.eagle:package:22443/2" type="model" library_version="5">
<description>PIN HEADER</description>
<packageinstances>
<packageinstance name="2X20"/>
</packageinstances>
</package3d>
<package3d name="2X20/90" urn="urn:adsk.eagle:package:22440/2" type="model" library_version="5">
<description>PIN HEADER</description>
<packageinstances>
<packageinstance name="2X20/90"/>
</packageinstances>
</package3d>
<package3d name="2X05" urn="urn:adsk.eagle:package:22470/2" type="model" library_version="4">
<description>PIN HEADER</description>
<packageinstances>
<packageinstance name="2X05"/>
</packageinstances>
</package3d>
<package3d name="2X05/90" urn="urn:adsk.eagle:package:22471/2" type="model" library_version="4">
<description>PIN HEADER</description>
<packageinstances>
<packageinstance name="2X05/90"/>
</packageinstances>
</package3d>
<package3d name="1X03" urn="urn:adsk.eagle:package:22458/2" type="model" library_version="5">
<description>PIN HEADER</description>
<packageinstances>
<packageinstance name="1X03"/>
</packageinstances>
</package3d>
<package3d name="1X03/90" urn="urn:adsk.eagle:package:22459/2" type="model" library_version="5">
<description>PIN HEADER</description>
<packageinstances>
<packageinstance name="1X03/90"/>
</packageinstances>
</package3d>
</packages3d>
<symbols>
<symbol name="PINH2X20" urn="urn:adsk.eagle:symbol:22314/1" library_version="5">
<wire x1="-6.35" y1="-27.94" x2="8.89" y2="-27.94" width="0.4064" layer="94"/>
<wire x1="8.89" y1="-27.94" x2="8.89" y2="25.4" width="0.4064" layer="94"/>
<wire x1="8.89" y1="25.4" x2="-6.35" y2="25.4" width="0.4064" layer="94"/>
<wire x1="-6.35" y1="25.4" x2="-6.35" y2="-27.94" width="0.4064" layer="94"/>
<text x="-6.35" y="26.035" size="1.778" layer="95">&gt;NAME</text>
<text x="-6.35" y="-30.48" size="1.778" layer="96">&gt;VALUE</text>
<pin name="1" x="-2.54" y="22.86" visible="pad" length="short" direction="pas" function="dot"/>
<pin name="2" x="5.08" y="22.86" visible="pad" length="short" direction="pas" function="dot" rot="R180"/>
<pin name="3" x="-2.54" y="20.32" visible="pad" length="short" direction="pas" function="dot"/>
<pin name="4" x="5.08" y="20.32" visible="pad" length="short" direction="pas" function="dot" rot="R180"/>
<pin name="5" x="-2.54" y="17.78" visible="pad" length="short" direction="pas" function="dot"/>
<pin name="6" x="5.08" y="17.78" visible="pad" length="short" direction="pas" function="dot" rot="R180"/>
<pin name="7" x="-2.54" y="15.24" visible="pad" length="short" direction="pas" function="dot"/>
<pin name="8" x="5.08" y="15.24" visible="pad" length="short" direction="pas" function="dot" rot="R180"/>
<pin name="9" x="-2.54" y="12.7" visible="pad" length="short" direction="pas" function="dot"/>
<pin name="10" x="5.08" y="12.7" visible="pad" length="short" direction="pas" function="dot" rot="R180"/>
<pin name="11" x="-2.54" y="10.16" visible="pad" length="short" direction="pas" function="dot"/>
<pin name="12" x="5.08" y="10.16" visible="pad" length="short" direction="pas" function="dot" rot="R180"/>
<pin name="13" x="-2.54" y="7.62" visible="pad" length="short" direction="pas" function="dot"/>
<pin name="14" x="5.08" y="7.62" visible="pad" length="short" direction="pas" function="dot" rot="R180"/>
<pin name="15" x="-2.54" y="5.08" visible="pad" length="short" direction="pas" function="dot"/>
<pin name="16" x="5.08" y="5.08" visible="pad" length="short" direction="pas" function="dot" rot="R180"/>
<pin name="17" x="-2.54" y="2.54" visible="pad" length="short" direction="pas" function="dot"/>
<pin name="18" x="5.08" y="2.54" visible="pad" length="short" direction="pas" function="dot" rot="R180"/>
<pin name="19" x="-2.54" y="0" visible="pad" length="short" direction="pas" function="dot"/>
<pin name="20" x="5.08" y="0" visible="pad" length="short" direction="pas" function="dot" rot="R180"/>
<pin name="21" x="-2.54" y="-2.54" visible="pad" length="short" direction="pas" function="dot"/>
<pin name="22" x="5.08" y="-2.54" visible="pad" length="short" direction="pas" function="dot" rot="R180"/>
<pin name="23" x="-2.54" y="-5.08" visible="pad" length="short" direction="pas" function="dot"/>
<pin name="24" x="5.08" y="-5.08" visible="pad" length="short" direction="pas" function="dot" rot="R180"/>
<pin name="25" x="-2.54" y="-7.62" visible="pad" length="short" direction="pas" function="dot"/>
<pin name="26" x="5.08" y="-7.62" visible="pad" length="short" direction="pas" function="dot" rot="R180"/>
<pin name="27" x="-2.54" y="-10.16" visible="pad" length="short" direction="pas" function="dot"/>
<pin name="28" x="5.08" y="-10.16" visible="pad" length="short" direction="pas" function="dot" rot="R180"/>
<pin name="29" x="-2.54" y="-12.7" visible="pad" length="short" direction="pas" function="dot"/>
<pin name="30" x="5.08" y="-12.7" visible="pad" length="short" direction="pas" function="dot" rot="R180"/>
<pin name="31" x="-2.54" y="-15.24" visible="pad" length="short" direction="pas" function="dot"/>
<pin name="32" x="5.08" y="-15.24" visible="pad" length="short" direction="pas" function="dot" rot="R180"/>
<pin name="33" x="-2.54" y="-17.78" visible="pad" length="short" direction="pas" function="dot"/>
<pin name="34" x="5.08" y="-17.78" visible="pad" length="short" direction="pas" function="dot" rot="R180"/>
<pin name="35" x="-2.54" y="-20.32" visible="pad" length="short" direction="pas" function="dot"/>
<pin name="36" x="5.08" y="-20.32" visible="pad" length="short" direction="pas" function="dot" rot="R180"/>
<pin name="37" x="-2.54" y="-22.86" visible="pad" length="short" direction="pas" function="dot"/>
<pin name="38" x="5.08" y="-22.86" visible="pad" length="short" direction="pas" function="dot" rot="R180"/>
<pin name="39" x="-2.54" y="-25.4" visible="pad" length="short" direction="pas" function="dot"/>
<pin name="40" x="5.08" y="-25.4" visible="pad" length="short" direction="pas" function="dot" rot="R180"/>
</symbol>
<symbol name="PINH2X5" urn="urn:adsk.eagle:symbol:22357/1" library_version="4">
<wire x1="-6.35" y1="-7.62" x2="8.89" y2="-7.62" width="0.4064" layer="94"/>
<wire x1="8.89" y1="-7.62" x2="8.89" y2="7.62" width="0.4064" layer="94"/>
<wire x1="8.89" y1="7.62" x2="-6.35" y2="7.62" width="0.4064" layer="94"/>
<wire x1="-6.35" y1="7.62" x2="-6.35" y2="-7.62" width="0.4064" layer="94"/>
<text x="-6.35" y="8.255" size="1.778" layer="95">&gt;NAME</text>
<text x="-6.35" y="-10.16" size="1.778" layer="96">&gt;VALUE</text>
<pin name="1" x="-2.54" y="5.08" visible="pad" length="short" direction="pas" function="dot"/>
<pin name="2" x="5.08" y="5.08" visible="pad" length="short" direction="pas" function="dot" rot="R180"/>
<pin name="3" x="-2.54" y="2.54" visible="pad" length="short" direction="pas" function="dot"/>
<pin name="4" x="5.08" y="2.54" visible="pad" length="short" direction="pas" function="dot" rot="R180"/>
<pin name="5" x="-2.54" y="0" visible="pad" length="short" direction="pas" function="dot"/>
<pin name="6" x="5.08" y="0" visible="pad" length="short" direction="pas" function="dot" rot="R180"/>
<pin name="7" x="-2.54" y="-2.54" visible="pad" length="short" direction="pas" function="dot"/>
<pin name="8" x="5.08" y="-2.54" visible="pad" length="short" direction="pas" function="dot" rot="R180"/>
<pin name="9" x="-2.54" y="-5.08" visible="pad" length="short" direction="pas" function="dot"/>
<pin name="10" x="5.08" y="-5.08" visible="pad" length="short" direction="pas" function="dot" rot="R180"/>
</symbol>
<symbol name="PINHD3" urn="urn:adsk.eagle:symbol:22339/1" library_version="5">
<wire x1="-6.35" y1="-5.08" x2="1.27" y2="-5.08" width="0.4064" layer="94"/>
<wire x1="1.27" y1="-5.08" x2="1.27" y2="5.08" width="0.4064" layer="94"/>
<wire x1="1.27" y1="5.08" x2="-6.35" y2="5.08" width="0.4064" layer="94"/>
<wire x1="-6.35" y1="5.08" x2="-6.35" y2="-5.08" width="0.4064" layer="94"/>
<text x="-6.35" y="5.715" size="1.778" layer="95">&gt;NAME</text>
<text x="-6.35" y="-7.62" size="1.778" layer="96">&gt;VALUE</text>
<pin name="1" x="-2.54" y="2.54" visible="pad" length="short" direction="pas" function="dot"/>
<pin name="2" x="-2.54" y="0" visible="pad" length="short" direction="pas" function="dot"/>
<pin name="3" x="-2.54" y="-2.54" visible="pad" length="short" direction="pas" function="dot"/>
</symbol>
</symbols>
<devicesets>
<deviceset name="PINHD-2X20" urn="urn:adsk.eagle:component:22518/4" prefix="JP" uservalue="yes" library_version="5">
<description>&lt;b&gt;PIN HEADER&lt;/b&gt;</description>
<gates>
<gate name="A" symbol="PINH2X20" x="0" y="0"/>
</gates>
<devices>
<device name="" package="2X20">
<connects>
<connect gate="A" pin="1" pad="1"/>
<connect gate="A" pin="10" pad="10"/>
<connect gate="A" pin="11" pad="11"/>
<connect gate="A" pin="12" pad="12"/>
<connect gate="A" pin="13" pad="13"/>
<connect gate="A" pin="14" pad="14"/>
<connect gate="A" pin="15" pad="15"/>
<connect gate="A" pin="16" pad="16"/>
<connect gate="A" pin="17" pad="17"/>
<connect gate="A" pin="18" pad="18"/>
<connect gate="A" pin="19" pad="19"/>
<connect gate="A" pin="2" pad="2"/>
<connect gate="A" pin="20" pad="20"/>
<connect gate="A" pin="21" pad="21"/>
<connect gate="A" pin="22" pad="22"/>
<connect gate="A" pin="23" pad="23"/>
<connect gate="A" pin="24" pad="24"/>
<connect gate="A" pin="25" pad="25"/>
<connect gate="A" pin="26" pad="26"/>
<connect gate="A" pin="27" pad="27"/>
<connect gate="A" pin="28" pad="28"/>
<connect gate="A" pin="29" pad="29"/>
<connect gate="A" pin="3" pad="3"/>
<connect gate="A" pin="30" pad="30"/>
<connect gate="A" pin="31" pad="31"/>
<connect gate="A" pin="32" pad="32"/>
<connect gate="A" pin="33" pad="33"/>
<connect gate="A" pin="34" pad="34"/>
<connect gate="A" pin="35" pad="35"/>
<connect gate="A" pin="36" pad="36"/>
<connect gate="A" pin="37" pad="37"/>
<connect gate="A" pin="38" pad="38"/>
<connect gate="A" pin="39" pad="39"/>
<connect gate="A" pin="4" pad="4"/>
<connect gate="A" pin="40" pad="40"/>
<connect gate="A" pin="5" pad="5"/>
<connect gate="A" pin="6" pad="6"/>
<connect gate="A" pin="7" pad="7"/>
<connect gate="A" pin="8" pad="8"/>
<connect gate="A" pin="9" pad="9"/>
</connects>
<package3dinstances>
<package3dinstance package3d_urn="urn:adsk.eagle:package:22443/2"/>
</package3dinstances>
<technologies>
<technology name="">
<attribute name="POPULARITY" value="12" constant="no"/>
</technology>
</technologies>
</device>
<device name="/90" package="2X20/90">
<connects>
<connect gate="A" pin="1" pad="1"/>
<connect gate="A" pin="10" pad="10"/>
<connect gate="A" pin="11" pad="11"/>
<connect gate="A" pin="12" pad="12"/>
<connect gate="A" pin="13" pad="13"/>
<connect gate="A" pin="14" pad="14"/>
<connect gate="A" pin="15" pad="15"/>
<connect gate="A" pin="16" pad="16"/>
<connect gate="A" pin="17" pad="17"/>
<connect gate="A" pin="18" pad="18"/>
<connect gate="A" pin="19" pad="19"/>
<connect gate="A" pin="2" pad="2"/>
<connect gate="A" pin="20" pad="20"/>
<connect gate="A" pin="21" pad="21"/>
<connect gate="A" pin="22" pad="22"/>
<connect gate="A" pin="23" pad="23"/>
<connect gate="A" pin="24" pad="24"/>
<connect gate="A" pin="25" pad="25"/>
<connect gate="A" pin="26" pad="26"/>
<connect gate="A" pin="27" pad="27"/>
<connect gate="A" pin="28" pad="28"/>
<connect gate="A" pin="29" pad="29"/>
<connect gate="A" pin="3" pad="3"/>
<connect gate="A" pin="30" pad="30"/>
<connect gate="A" pin="31" pad="31"/>
<connect gate="A" pin="32" pad="32"/>
<connect gate="A" pin="33" pad="33"/>
<connect gate="A" pin="34" pad="34"/>
<connect gate="A" pin="35" pad="35"/>
<connect gate="A" pin="36" pad="36"/>
<connect gate="A" pin="37" pad="37"/>
<connect gate="A" pin="38" pad="38"/>
<connect gate="A" pin="39" pad="39"/>
<connect gate="A" pin="4" pad="4"/>
<connect gate="A" pin="40" pad="40"/>
<connect gate="A" pin="5" pad="5"/>
<connect gate="A" pin="6" pad="6"/>
<connect gate="A" pin="7" pad="7"/>
<connect gate="A" pin="8" pad="8"/>
<connect gate="A" pin="9" pad="9"/>
</connects>
<package3dinstances>
<package3dinstance package3d_urn="urn:adsk.eagle:package:22440/2"/>
</package3dinstances>
<technologies>
<technology name="">
<attribute name="POPULARITY" value="0" constant="no"/>
</technology>
</technologies>
</device>
</devices>
</deviceset>
<deviceset name="PINHD-2X5" urn="urn:adsk.eagle:component:22531/4" prefix="JP" uservalue="yes" library_version="4">
<description>&lt;b&gt;PIN HEADER&lt;/b&gt;</description>
<gates>
<gate name="A" symbol="PINH2X5" x="0" y="0"/>
</gates>
<devices>
<device name="" package="2X05">
<connects>
<connect gate="A" pin="1" pad="1"/>
<connect gate="A" pin="10" pad="10"/>
<connect gate="A" pin="2" pad="2"/>
<connect gate="A" pin="3" pad="3"/>
<connect gate="A" pin="4" pad="4"/>
<connect gate="A" pin="5" pad="5"/>
<connect gate="A" pin="6" pad="6"/>
<connect gate="A" pin="7" pad="7"/>
<connect gate="A" pin="8" pad="8"/>
<connect gate="A" pin="9" pad="9"/>
</connects>
<package3dinstances>
<package3dinstance package3d_urn="urn:adsk.eagle:package:22470/2"/>
</package3dinstances>
<technologies>
<technology name="">
<attribute name="POPULARITY" value="35" constant="no"/>
</technology>
</technologies>
</device>
<device name="/90" package="2X05/90">
<connects>
<connect gate="A" pin="1" pad="1"/>
<connect gate="A" pin="10" pad="10"/>
<connect gate="A" pin="2" pad="2"/>
<connect gate="A" pin="3" pad="3"/>
<connect gate="A" pin="4" pad="4"/>
<connect gate="A" pin="5" pad="5"/>
<connect gate="A" pin="6" pad="6"/>
<connect gate="A" pin="7" pad="7"/>
<connect gate="A" pin="8" pad="8"/>
<connect gate="A" pin="9" pad="9"/>
</connects>
<package3dinstances>
<package3dinstance package3d_urn="urn:adsk.eagle:package:22471/2"/>
</package3dinstances>
<technologies>
<technology name="">
<attribute name="POPULARITY" value="0" constant="no"/>
</technology>
</technologies>
</device>
</devices>
</deviceset>
<deviceset name="PINHD-1X3" urn="urn:adsk.eagle:component:22524/4" prefix="JP" uservalue="yes" library_version="5">
<description>&lt;b&gt;PIN HEADER&lt;/b&gt;</description>
<gates>
<gate name="A" symbol="PINHD3" x="0" y="0"/>
</gates>
<devices>
<device name="" package="1X03">
<connects>
<connect gate="A" pin="1" pad="1"/>
<connect gate="A" pin="2" pad="2"/>
<connect gate="A" pin="3" pad="3"/>
</connects>
<package3dinstances>
<package3dinstance package3d_urn="urn:adsk.eagle:package:22458/2"/>
</package3dinstances>
<technologies>
<technology name="">
<attribute name="POPULARITY" value="92" constant="no"/>
</technology>
</technologies>
</device>
<device name="/90" package="1X03/90">
<connects>
<connect gate="A" pin="1" pad="1"/>
<connect gate="A" pin="2" pad="2"/>
<connect gate="A" pin="3" pad="3"/>
</connects>
<package3dinstances>
<package3dinstance package3d_urn="urn:adsk.eagle:package:22459/2"/>
</package3dinstances>
<technologies>
<technology name="">
<attribute name="POPULARITY" value="17" constant="no"/>
</technology>
</technologies>
</device>
</devices>
</deviceset>
</devicesets>
</library>
</libraries>
<attributes>
</attributes>
<variantdefs>
</variantdefs>
<classes>
<class number="0" name="default" width="0" drill="0">
</class>
</classes>
<parts>
<part name="RASPBERRY1-3" library="pinhead" library_urn="urn:adsk.eagle:library:325" deviceset="PINHD-2X20" device="" package3d_urn="urn:adsk.eagle:package:22443/2"/>
<part name="JP2" library="pinhead" library_urn="urn:adsk.eagle:library:325" deviceset="PINHD-2X5" device="" package3d_urn="urn:adsk.eagle:package:22470/2" value="JTAG"/>
<part name="JP3" library="pinhead" library_urn="urn:adsk.eagle:library:325" deviceset="PINHD-1X3" device="" package3d_urn="urn:adsk.eagle:package:22458/2"/>
</parts>
<sheets>
<sheet>
<plain>
</plain>
<instances>
<instance part="RASPBERRY1-3" gate="A" x="38.1" y="50.8" smashed="yes">
<attribute name="NAME" x="31.75" y="76.835" size="1.778" layer="95"/>
<attribute name="VALUE" x="31.75" y="20.32" size="1.778" layer="96"/>
</instance>
<instance part="JP2" gate="A" x="96.52" y="60.96" smashed="yes" rot="R180">
<attribute name="NAME" x="102.87" y="52.705" size="1.778" layer="95" rot="R180"/>
<attribute name="VALUE" x="102.87" y="71.12" size="1.778" layer="96" rot="R180"/>
</instance>
<instance part="JP3" gate="A" x="96.52" y="38.1" smashed="yes">
<attribute name="NAME" x="90.17" y="43.815" size="1.778" layer="95"/>
<attribute name="VALUE" x="90.17" y="30.48" size="1.778" layer="96"/>
</instance>
</instances>
<busses>
</busses>
<nets>
<net name="TMS" class="0">
<segment>
<pinref part="JP2" gate="A" pin="5"/>
<wire x1="99.06" y1="60.96" x2="106.68" y2="60.96" width="0.1524" layer="91"/>
<label x="104.14" y="60.96" size="1.778" layer="95"/>
</segment>
<segment>
<pinref part="RASPBERRY1-3" gate="A" pin="8"/>
<wire x1="43.18" y1="66.04" x2="53.34" y2="66.04" width="0.1524" layer="91"/>
<label x="50.8" y="66.04" size="1.778" layer="95"/>
</segment>
</net>
<net name="TCK" class="0">
<segment>
<pinref part="JP2" gate="A" pin="1"/>
<wire x1="99.06" y1="55.88" x2="106.68" y2="55.88" width="0.1524" layer="91"/>
<label x="104.14" y="55.88" size="1.778" layer="95"/>
</segment>
<segment>
<pinref part="RASPBERRY1-3" gate="A" pin="12"/>
<wire x1="43.18" y1="60.96" x2="53.34" y2="60.96" width="0.1524" layer="91"/>
<label x="50.8" y="60.96" size="1.778" layer="95"/>
</segment>
</net>
<net name="TDO" class="0">
<segment>
<pinref part="JP2" gate="A" pin="3"/>
<wire x1="99.06" y1="58.42" x2="106.68" y2="58.42" width="0.1524" layer="91"/>
<label x="104.14" y="58.42" size="1.778" layer="95"/>
</segment>
<segment>
<pinref part="RASPBERRY1-3" gate="A" pin="14"/>
<wire x1="43.18" y1="58.42" x2="53.34" y2="58.42" width="0.1524" layer="91"/>
<label x="50.8" y="58.42" size="1.778" layer="95"/>
</segment>
</net>
<net name="TDI" class="0">
<segment>
<pinref part="JP2" gate="A" pin="9"/>
<wire x1="99.06" y1="66.04" x2="106.68" y2="66.04" width="0.1524" layer="91"/>
<label x="104.14" y="66.04" size="1.778" layer="95"/>
</segment>
<segment>
<pinref part="RASPBERRY1-3" gate="A" pin="16"/>
<wire x1="43.18" y1="55.88" x2="53.34" y2="55.88" width="0.1524" layer="91"/>
<label x="50.8" y="55.88" size="1.778" layer="95"/>
</segment>
</net>
<net name="3.3V" class="0">
<segment>
<pinref part="JP3" gate="A" pin="1"/>
<wire x1="93.98" y1="40.64" x2="83.82" y2="40.64" width="0.1524" layer="91"/>
<label x="83.82" y="40.64" size="1.778" layer="95"/>
</segment>
<segment>
<pinref part="RASPBERRY1-3" gate="A" pin="2"/>
<wire x1="43.18" y1="73.66" x2="53.34" y2="73.66" width="0.1524" layer="91"/>
<label x="50.8" y="73.66" size="1.778" layer="95"/>
</segment>
</net>
<net name="5V" class="0">
<segment>
<pinref part="JP3" gate="A" pin="3"/>
<wire x1="93.98" y1="35.56" x2="83.82" y2="35.56" width="0.1524" layer="91"/>
<label x="83.82" y="35.56" size="1.778" layer="95"/>
</segment>
<segment>
<pinref part="RASPBERRY1-3" gate="A" pin="1"/>
<wire x1="35.56" y1="73.66" x2="22.86" y2="73.66" width="0.1524" layer="91"/>
<label x="22.86" y="73.66" size="1.778" layer="95"/>
</segment>
<segment>
<pinref part="RASPBERRY1-3" gate="A" pin="3"/>
<wire x1="35.56" y1="71.12" x2="22.86" y2="71.12" width="0.1524" layer="91"/>
<label x="22.86" y="71.12" size="1.778" layer="95"/>
</segment>
</net>
<net name="GND" class="0">
<segment>
<pinref part="JP2" gate="A" pin="2"/>
<wire x1="91.44" y1="55.88" x2="83.82" y2="55.88" width="0.1524" layer="91"/>
<label x="81.28" y="55.88" size="1.778" layer="95"/>
</segment>
<segment>
<pinref part="JP2" gate="A" pin="10"/>
<wire x1="91.44" y1="66.04" x2="83.82" y2="66.04" width="0.1524" layer="91"/>
<label x="81.28" y="66.04" size="1.778" layer="95"/>
</segment>
<segment>
<pinref part="RASPBERRY1-3" gate="A" pin="5"/>
<wire x1="35.56" y1="68.58" x2="22.86" y2="68.58" width="0.1524" layer="91"/>
<label x="22.86" y="68.58" size="1.778" layer="95"/>
</segment>
<segment>
<pinref part="RASPBERRY1-3" gate="A" pin="13"/>
<wire x1="35.56" y1="58.42" x2="22.86" y2="58.42" width="0.1524" layer="91"/>
<label x="22.86" y="58.42" size="1.778" layer="95"/>
</segment>
<segment>
<pinref part="RASPBERRY1-3" gate="A" pin="19"/>
<wire x1="35.56" y1="50.8" x2="22.86" y2="50.8" width="0.1524" layer="91"/>
<label x="22.86" y="50.8" size="1.778" layer="95"/>
</segment>
<segment>
<pinref part="RASPBERRY1-3" gate="A" pin="29"/>
<wire x1="35.56" y1="38.1" x2="22.86" y2="38.1" width="0.1524" layer="91"/>
<label x="22.86" y="38.1" size="1.778" layer="95"/>
</segment>
<segment>
<pinref part="RASPBERRY1-3" gate="A" pin="33"/>
<wire x1="35.56" y1="33.02" x2="22.86" y2="33.02" width="0.1524" layer="91"/>
<label x="22.86" y="33.02" size="1.778" layer="95"/>
</segment>
</net>
<net name="VCC" class="0">
<segment>
<pinref part="JP2" gate="A" pin="4"/>
<wire x1="91.44" y1="58.42" x2="83.82" y2="58.42" width="0.1524" layer="91"/>
<label x="81.28" y="58.42" size="1.778" layer="95"/>
</segment>
<segment>
<pinref part="JP3" gate="A" pin="2"/>
<wire x1="93.98" y1="38.1" x2="83.82" y2="38.1" width="0.1524" layer="91"/>
<label x="83.82" y="38.1" size="1.778" layer="95"/>
</segment>
</net>
</nets>
</sheet>
</sheets>
</schematic>
</drawing>
<compatibility>
<note version="8.2" severity="warning">
Since Version 8.2, EAGLE supports online libraries. The ids
of those online libraries will not be understood (or retained)
with this version.
</note>
<note version="8.3" severity="warning">
Since Version 8.3, EAGLE supports URNs for individual library
assets (packages, symbols, and devices). The URNs of those assets
will not be understood (or retained) with this version.
</note>
<note version="8.3" severity="warning">
Since Version 8.3, EAGLE supports the association of 3D packages
with devices in libraries, schematics, and board files. Those 3D
packages will not be understood (or retained) with this version.
</note>
</compatibility>
</eagle>
